Special Topics: Sports Analytics 36-460/660 – Bayesian multilevel modeling in the wild: Beyond homogeneity
…
Draws were sampled using sample(hmc). For each parameter, Bulk_ESS
and Tail_ESS are effective sample size measures, and Rhat is the potential
scale reduction factor on split chains (at convergence, Rhat = 1).

To manually set priors, use the function set_prior()

Posterior samples for all model parameters

posterior_samples <- as_tibble(snap_timing_brm)
# names(posterior_samples) # view all parameter names
posterior_samples

# A tibble: 10,000 × 521
   b_Intercept b_shape_Intercept b_factordown2 b_factordown3 b_factordown4
         <dbl>             <dbl>         <dbl>         <dbl>         <dbl>
 1        2.39             0.735       0.0758          0.164        0.120 
 2        2.45             0.743       0.0132          0.240        0.138 
 3        2.51             0.798       0.102           0.188        0.103 
 4        2.53             0.769       0.0669          0.238        0.0748
 5        2.58             0.668       0.0704          0.152        0.262 
 6        2.40             0.694       0.0941          0.279        0.0859
 7        2.45             0.773       0.00772         0.161        0.121 
 8        2.64             0.724       0.0477          0.159        0.188 
 9        2.64             0.763       0.0155          0.227       -0.0208
10        2.26             0.764       0.0883          0.160        0.0594
# ℹ 9,990 more rows
# ℹ 516 more variables: b_play_clock_at_motion <dbl>,
#   b_factorposteam_timeouts_remaining1 <dbl>,
#   b_factorposteam_timeouts_remaining2 <dbl>,
#   b_factorposteam_timeouts_remaining3 <dbl>, b_positionTE <dbl>,
#   b_positionWR <dbl>, b_n_motion_since_line_set <dbl>,
#   b_factormotion_cluster2 <dbl>, b_factormotion_cluster3 <dbl>, …

Posterior distributions of sd parameters

posterior_samples |> 
  select(contains("sd_")) # only get sd parameters

# A tibble: 10,000 × 4
   sd_defensiveTeam__Intercept sd_nflId__Intercept sd_passer_player_id__Interc…¹
                         <dbl>               <dbl>                         <dbl>
 1                     0.0356                0.163                        0.0790
 2                     0.0653                0.125                        0.127 
 3                     0.0574                0.146                        0.0845
 4                     0.00733               0.156                        0.118 
 5                     0.0489                0.139                        0.128 
 6                     0.00648               0.127                        0.110 
 7                     0.0384                0.180                        0.149 
 8                     0.0152                0.182                        0.162 
 9                     0.0151                0.204                        0.143 
10                     0.0212                0.168                        0.0944
# ℹ 9,990 more rows
# ℹ abbreviated name: ¹​sd_passer_player_id__Intercept
# ℹ 1 more variable: sd_passer_player_id__shape_Intercept <dbl>
…
# A tibble: 4 × 5
  term                       posterior_mean posterior_sd lower_95_ci upper_95_ci
  <chr>                               <dbl>        <dbl>       <dbl>       <dbl>
1 sd_defensiveTeam                   0.0287       0.0197     0.00132      0.0730
2 sd_nflId                           0.153        0.0304     0.0916       0.211 
3 sd_passer_player_id                0.0931       0.0315     0.0273       0.156 
4 sd_passer_player_id__shape         0.296        0.0523     0.204        0.410 

Posterior distributions of \(u_q\)

posterior_samples |> 
  select(contains("r_passer_player_id__shape"))

# A tibble: 10,000 × 54
   r_passer_player_id__shape[00-…¹ r_passer_player_id__…² r_passer_player_id__…³
                             <dbl>                  <dbl>                  <dbl>
 1                           0.410               -0.229                  -0.330 
 2                           0.268                0.0559                 -0.0502
 3                           0.148               -0.175                  -0.298 
 4                           0.149               -0.00825                -0.117 
 5                           0.653               -0.313                  -0.370 
 6                           0.255                0.0220                 -0.0831
 7                           0.234               -0.198                  -0.360 
 8                           0.349                0.0435                 -0.559 
 9                           0.289                0.0626                 -0.114 
10                           0.299               -0.239                  -0.249 
# ℹ 9,990 more rows
# ℹ abbreviated names: ¹​`r_passer_player_id__shape[00-0019596,Intercept]`,
#   ²​`r_passer_player_id__shape[00-0023459,Intercept]`,
#   ³​`r_passer_player_id__shape[00-0026143,Intercept]`
# ℹ 51 more variables: `r_passer_player_id__shape[00-0026158,Intercept]` <dbl>,
#   `r_passer_player_id__shape[00-0026498,Intercept]` <dbl>,
#   `r_passer_player_id__shape[00-0026625,Intercept]` <dbl>, …
…
