Lecture 4: Multinomial Logistic Regression for Expected Points – Special Topics: Sports Analytics 36-460/660
…
The following code chunk reads in the relevant NFL play-by-play dataset (assuming it is in the correct directory) and performs some initial pre-processing relevant for the expected points model:

library(tidyverse)
nfl_ep_model_data <- read_rds(here::here("data/model_nfl_pbp_data.rds"))
nfl_ep_model_data <- nfl_ep_model_data |>
  # Make the No_Score level the reference level:
  mutate(Next_Score_Half = fct_relevel(Next_Score_Half, "No_Score"),
         # log transform of yards to go and indicator for two minute warning:
         log_ydstogo = log(ydstogo),
         # Changing down into a factor variable: 
         down = factor(down))

nfl_ep_model_data

# A tibble: 422,904 × 21
   game_id     Next_Score_Half Drive_Score_Half play_type game_seconds_remaining
   <chr>       <fct>                      <dbl> <chr>                      <dbl>
 1 2013_01_AR… Opp_Touchdown                  4 pass                        3593
 2 2013_01_AR… Opp_Touchdown                  4 run                         3572
 3 2013_01_AR… Opp_Touchdown                  4 pass                        3536
 4 2013_01_AR… Opp_Touchdown                  4 no_play                     3507
 5 2013_01_AR… Opp_Touchdown                  4 run                         3476
 6 2013_01_AR… Opp_Touchdown                  4 no_play                     3446
 7 2013_01_AR… Opp_Touchdown                  4 pass                        3428
 8 2013_01_AR… Opp_Touchdown                  4 pass                        3424
 9 2013_01_AR… Opp_Touchdown                  4 punt                        3397
10 2013_01_AR… Touchdown                      4 run                         3386
# ℹ 422,894 more rows
# ℹ 16 more variables: half_seconds_remaining <dbl>, yardline_100 <dbl>,
#   posteam <chr>, defteam <chr>, home_team <chr>, ydstogo <dbl>, season <int>,
#   qtr <dbl>, down <fct>, week <int>, drive <dbl>, score_differential <dbl>,
#   posteam_timeouts_remaining <dbl>, defteam_timeouts_remaining <dbl>,
#   desc <chr>, log_ydstogo <dbl>
…
Residual Deviance: 1111036 
AIC: 1111192 

You see the usual type of output (coefficients, standard errors, deviance, AIC), but we see coefficient estimates for each next score outcome (except for the reference level No_Score).

Alternatively, it can be helpful to visualize the implied relationships between the various features and the outcome probabilities using visualization techniques. In order to do this, we first need to get the fitted probabilities for each scoring event. For a nnet multinomial logistic regression model, we can use the predict() function with type = "probs" as an input to return the matrix of probabilities for each event:

next_score_probs <- predict(init_ep_model, 
                            newdata = nfl_ep_model_data, type = "probs") |>
  as_tibble()
next_score_probs

# A tibble: 422,904 × 7
   No_Score Field_Goal Opp_Field_Goal Opp_Safety Opp_Touchdown  Safety Touchdown
      <dbl>      <dbl>          <dbl>      <dbl>         <dbl>   <dbl>     <dbl>
 1 0.000970      0.204         0.157    0.00476          0.279 0.00427     0.350
 2 0.000864      0.236         0.126    0.00217          0.222 0.00422     0.408
 3 0.000912      0.234         0.119    0.00167          0.204 0.00445     0.437
 4 0.000876      0.269         0.0957   0.000879         0.164 0.00398     0.465
 5 0.00131       0.324         0.139    0.00133          0.236 0.00328     0.295
 6 0.00132       0.274         0.131    0.00188          0.227 0.00460     0.361
 7 0.00158       0.261         0.151    0.00282          0.262 0.00463     0.317
 8 0.00164       0.238         0.184    0.00363          0.320 0.00471     0.247
 9 0.00173       0.265         0.168    0.00226          0.285 0.00669     0.271
10 0.00255       0.199         0.170    0.00655          0.291 0.00411     0.327
# ℹ 422,894 more rows
…
