Lecture 5: Exploring Expected Points Added – Special Topics: Sports Analytics 36-460/660
…
# Load the 2024 data:
nfl_2024_pbp <- load_pbp(2024) |>
  # Only use games from the regular season
  filter(season_type == "REG", 
         # and where epa is not missing along with other issues for the 
         # teams involved either offense (posteam) or defense (defteam)
         !is.na(epa), !is.na(posteam), posteam != "",
         !is.na(defteam), defteam != "")

# Preview the data
nfl_2024_pbp

# A tibble: 44,414 × 372
   play_id game_id     old_game_id home_team away_team season_type  week posteam
     <dbl> <chr>       <chr>       <chr>     <chr>     <chr>       <int> <chr>  
 1      40 2024_01_AR… 2024090801  BUF       ARI       REG             1 ARI    
 2      61 2024_01_AR… 2024090801  BUF       ARI       REG             1 ARI    
 3      83 2024_01_AR… 2024090801  BUF       ARI       REG             1 ARI    
 4     108 2024_01_AR… 2024090801  BUF       ARI       REG             1 ARI    
 5     133 2024_01_AR… 2024090801  BUF       ARI       REG             1 ARI    
 6     155 2024_01_AR… 2024090801  BUF       ARI       REG             1 ARI    
 7     177 2024_01_AR… 2024090801  BUF       ARI       REG             1 ARI    
 8     199 2024_01_AR… 2024090801  BUF       ARI       REG             1 ARI    
 9     224 2024_01_AR… 2024090801  BUF       ARI       REG             1 ARI    
10     265 2024_01_AR… 2024090801  BUF       ARI       REG             1 ARI    
# ℹ 44,404 more rows
# ℹ 364 more variables: posteam_type <chr>, defteam <chr>, side_of_field <chr>,
#   yardline_100 <dbl>, game_date <chr>, quarter_seconds_remaining <dbl>,
#   half_seconds_remaining <dbl>, game_seconds_remaining <dbl>,
#   game_half <chr>, quarter_end <dbl>, drive <dbl>, sp <dbl>, qtr <dbl>,
#   down <dbl>, goal_to_go <int>, time <chr>, yrdln <chr>, ydstogo <dbl>,
#   ydsnet <dbl>, desc <chr>, play_type <chr>, yards_gained <dbl>, …

Summarizing and Visualizing Total EPA

With this dataset, we’re now ready to actually compute various EPA-related statistics to measure team performance. The following code chunk computes the total EPA (i.e., sum of EPA), EPA per play, and success rate for each team when they are on offense:

team_off_summary <- nfl_2024_pbp |>
  group_by(posteam) |>
  summarize(total_epa = sum(epa),
            ave_epa = mean(epa),
            success_rate = mean(as.numeric(epa > 0)),
            .groups = "drop")
team_off_summary

# A tibble: 32 × 4
   posteam total_epa ave_epa success_rate
   <chr>       <dbl>   <dbl>        <dbl>
 1 ARI          85.6  0.0628        0.508
 2 ATL          16.1  0.0114        0.502
 3 BAL         195.   0.140         0.514
 4 BUF         185.   0.136         0.5  
 5 CAR         -52.8 -0.0392        0.460
 6 CHI         -72.5 -0.0512        0.434
 7 CIN         127.   0.0897        0.508
 8 CLE        -221.  -0.151         0.406
 9 DAL         -66.3 -0.0450        0.452
10 DEN          35.7  0.0258        0.470
# ℹ 22 more rows
…
NOTE: From looking at this visual, we observe symmetry in terms of team with positive and negative total EPA. If we observed an imbalance, with favoring of one direction over another, then I would be concerned about the EPA values. Such type of asymmetry may be due to changes in the scoring environment for a particular season relative to previous seasons in the expected points model’s training dataset.

We can easily change the bar colors to match each team’s respective color(s) by loading in team data via load_teams() from nflreadr:

team_data <- load_teams()
team_data

── nflverse team graphics ──────────────────────────────────────────────────────

ℹ Data updated: 2025-01-27 16:36:39 EST

# A tibble: 32 × 16
   team_abbr team_name      team_id team_nick team_conf team_division team_color
   <chr>     <chr>          <chr>   <chr>     <chr>     <chr>         <chr>     
 1 ARI       Arizona Cardi… 3800    Cardinals NFC       NFC West      #97233F   
 2 ATL       Atlanta Falco… 0200    Falcons   NFC       NFC South     #A71930   
 3 BAL       Baltimore Rav… 0325    Ravens    AFC       AFC North     #241773   
 4 BUF       Buffalo Bills  0610    Bills     AFC       AFC East      #00338D   
 5 CAR       Carolina Pant… 0750    Panthers  NFC       NFC South     #0085CA   
 6 CHI       Chicago Bears  0810    Bears     NFC       NFC North     #0B162A   
 7 CIN       Cincinnati Be… 0920    Bengals   AFC       AFC North     #FB4F14   
 8 CLE       Cleveland Bro… 1050    Browns    AFC       AFC North     #FF3C00   
 9 DAL       Dallas Cowboys 1200    Cowboys   NFC       NFC East      #002244   
10 DEN       Denver Broncos 1400    Broncos   AFC       AFC West      #002244   
# ℹ 22 more rows
# ℹ 9 more variables: team_color2 <chr>, team_color3 <chr>, team_color4 <chr>,
#   team_logo_wikipedia <chr>, team_logo_espn <chr>, team_wordmark <chr>,
#   team_conference_logo <chr>, team_league_logo <chr>, team_logo_squared <chr>

To add the colors to our figure, we can join the team_color to our summary table:

team_off_summary <- team_off_summary |>
  inner_join(dplyr::select(team_data, team_abbr, team_color),
             by = c("posteam" = "team_abbr"))
team_off_summary

# A tibble: 32 × 5
   posteam total_epa ave_epa success_rate team_color
   <chr>       <dbl>   <dbl>        <dbl> <chr>     
 1 ARI          85.6  0.0628        0.508 #97233F   
 2 ATL          16.1  0.0114        0.502 #A71930   
 3 BAL         195.   0.140         0.514 #241773   
 4 BUF         185.   0.136         0.5   #00338D   
 5 CAR         -52.8 -0.0392        0.460 #0085CA   
 6 CHI         -72.5 -0.0512        0.434 #0B162A   
 7 CIN         127.   0.0897        0.508 #FB4F14   
 8 CLE        -221.  -0.151         0.406 #FF3C00   
 9 DAL         -66.3 -0.0450        0.452 #002244   
10 DEN          35.7  0.0258        0.470 #002244   
# ℹ 22 more rows
…
We can repeat the same steps from a defensive perspective as well, by first creating the defense summary:

team_def_summary <- nfl_2024_pbp |>
  group_by(defteam) |>
  summarize(total_epa = sum(epa),
            ave_epa = mean(epa),
            # Flip success rate to be negative
            success_rate = mean(as.numeric(epa < 0)),
            .groups = "drop")
team_def_summary

# A tibble: 32 × 4
   defteam total_epa  ave_epa success_rate
   <chr>       <dbl>    <dbl>        <dbl>
 1 ARI         66.8   0.0497         0.474
 2 ATL         61.3   0.0439         0.490
 3 BAL         12.1   0.00849        0.523
 4 BUF         -4.98 -0.00361        0.504
 5 CAR        180.    0.121          0.458
 6 CHI         14.8   0.0111         0.506
 7 CIN         79.1   0.0560         0.483
 8 CLE        -15.3  -0.0112         0.543
 9 DAL         71.3   0.0511         0.495
10 DEN       -104.   -0.0725         0.533
# ℹ 22 more rows

Then join the team colors again:

team_def_summary <- team_def_summary |>
  inner_join(dplyr::select(team_data, team_abbr, team_color),
             by = c("defteam" = "team_abbr"))
team_def_summary

# A tibble: 32 × 5
   defteam total_epa  ave_epa success_rate team_color
   <chr>       <dbl>    <dbl>        <dbl> <chr>     
 1 ARI         66.8   0.0497         0.474 #97233F   
 2 ATL         61.3   0.0439         0.490 #A71930   
 3 BAL         12.1   0.00849        0.523 #241773   
 4 BUF         -4.98 -0.00361        0.504 #00338D   
 5 CAR        180.    0.121          0.458 #0085CA   
 6 CHI         14.8   0.0111         0.506 #0B162A   
 7 CIN         79.1   0.0560         0.483 #FB4F14   
 8 CLE        -15.3  -0.0112         0.543 #FF3C00   
 9 DAL         71.3   0.0511         0.495 #002244   
10 DEN       -104.   -0.0725         0.533 #002244   
# ℹ 22 more rows
…
# Repeat for defense:
team_def_summary <- team_def_summary |>
  rename(team = defteam, 
         def_total_epa = total_epa,
         def_ave_epa = ave_epa,
         def_success_rate = success_rate)

# And join together (dropping the team_color in the defense table):
team_summary <- team_off_summary |>
  inner_join(dplyr::select(team_def_summary, -team_color),
             by = "team")
team_summary

# A tibble: 32 × 8
   team  off_total_epa off_ave_epa off_success_rate team_color def_total_epa
   <chr>         <dbl>       <dbl>            <dbl> <chr>              <dbl>
 1 ARI            85.6      0.0628            0.508 #97233F            66.8 
 2 ATL            16.1      0.0114            0.502 #A71930            61.3 
 3 BAL           195.       0.140             0.514 #241773            12.1 
 4 BUF           185.       0.136             0.5   #00338D            -4.98
 5 CAR           -52.8     -0.0392            0.460 #0085CA           180.  
 6 CHI           -72.5     -0.0512            0.434 #0B162A            14.8 
 7 CIN           127.       0.0897            0.508 #FB4F14            79.1 
 8 CLE          -221.      -0.151             0.406 #FF3C00           -15.3 
 9 DAL           -66.3     -0.0450            0.452 #002244            71.3 
10 DEN            35.7      0.0258            0.470 #002244          -104.  
# ℹ 22 more rows
# ℹ 2 more variables: def_ave_epa <dbl>, def_success_rate <dbl>
…
  # group by the passer play name and id columns:
  group_by(passer_player_name, passer_player_id) |>
  # Now summarize (also storing the last team they were on)
  summarize(team = last(posteam),
            n_plays = n(),
            ave_epa = mean(epa),
            success_rate = mean(epa > 0),
            cpoe = mean(cpoe, na.rm = TRUE),
            .groups = "drop") |>
  # Join the team colors with left_join
  left_join(dplyr::select(team_data, team_abbr, team_color),
            by = c("team" = "team_abbr"))
passer_summary

# A tibble: 110 × 8
   passer_player_name passer_player_id team  n_plays  ave_epa success_rate
   <chr>              <chr>            <chr>   <int>    <dbl>        <dbl>
 1 A.Cole             00-0035190       LV          1  4.33           1    
 2 A.Dalton           00-0027973       CAR       168 -0.151          0.411
 3 A.Lazard           00-0034521       NYJ         1 -1.01           0    
 4 A.Mitchell         00-0039890       IND         1  2.45           1    
 5 A.O'Connell        00-0038579       LV        254  0.00981        0.441
 6 A.Richardson       00-0039164       IND       277 -0.159          0.347
 7 A.Rodgers          00-0023459       NYJ       627 -0.00202        0.434
 8 A.St. Brown        00-0036963       DET         1  1.72           1    
 9 B.Allen            00-0032434       SF         32 -0.546          0.344
10 B.Anger            00-0029692       DAL         2 -2.84           0    
# ℹ 100 more rows
# ℹ 2 more variables: cpoe <dbl>, team_color <chr>
…
