Lecture 5: Completion Percentage Over Expectation – Special Topics: Sports Analytics 36-460/660
…
Lecture 5: Completion Percentage Over Expectation

Introduction

The goal of this demo is begin our build-up to understanding the importance of multilevel modeling in sports. We’ll do this in the context of modeling completion probability for pass attempts in the NFL based on games during the 2023 and 2024 regular seasons. The dataset and code used to initialize it (init_nfl_passing_data.R) are available on Canvas.

The following code chunk reads in the relevant dataset (assuming it is in the correct directory) of passing plays:

library(tidyverse)
nfl_passing_data <- read_csv(here::here("data/nfl_passing_data.csv"))
nfl_passing_data

# A tibble: 35,987 × 17
   game_id         play_id drive posteam defteam posteam_type passer_name_id    
   <chr>             <dbl> <dbl> <chr>   <chr>   <chr>        <chr>             
 1 2023_01_ARI_WAS      77     1 WAS     ARI     home         S.Howell_00-00370…
 2 2023_01_ARI_WAS     124     1 WAS     ARI     home         S.Howell_00-00370…
 3 2023_01_ARI_WAS     147     1 WAS     ARI     home         S.Howell_00-00370…
 4 2023_01_ARI_WAS     172     1 WAS     ARI     home         S.Howell_00-00370…
 5 2023_01_ARI_WAS     197     1 WAS     ARI     home         S.Howell_00-00370…
 6 2023_01_ARI_WAS     220     1 WAS     ARI     home         S.Howell_00-00370…
 7 2023_01_ARI_WAS     332     2 ARI     WAS     away         J.Dobbs_00-0033949
 8 2023_01_ARI_WAS     357     2 ARI     WAS     away         J.Dobbs_00-0033949
 9 2023_01_ARI_WAS     380     2 ARI     WAS     away         J.Dobbs_00-0033949
10 2023_01_ARI_WAS     526     3 WAS     ARI     home         S.Howell_00-00370…
# ℹ 35,977 more rows
# ℹ 10 more variables: receiver_name_id <chr>, complete_pass <dbl>,
#   pass_location <chr>, air_yards <dbl>, qb_hit <dbl>, epa <dbl>,
#   yardline_100 <dbl>, down <dbl>, ydstogo <dbl>, is_home <dbl>
…
# Now create the QB summary table:
qb_summary <- nfl_passing_data |>
  group_by(passer_name_id) |>
  summarize(n_pass = n(),
            comps = sum(complete_pass),
            comp_perc = mean(complete_pass),
            ex_comps = sum(comp_prob),
            ex_comp_perc = mean(comp_prob),
            cpoe = mean(comp_resid),
            .groups = "drop")
qb_summary

# A tibble: 141 × 7
   passer_name_id          n_pass comps comp_perc ex_comps ex_comp_perc    cpoe
   <chr>                    <int> <dbl>     <dbl>    <dbl>        <dbl>   <dbl>
 1 A.Cole_00-0035190            1     1     1        0.710        0.710  0.290 
 2 A.Dalton_00-0027973        218   140     0.642  144.           0.661 -0.0187
 3 A.Lazard_00-0034521          1     0     0        0.533        0.533 -0.533 
 4 A.McCarron_00-0031288        5     4     0.8      3.93         0.786  0.0136
 5 A.Mitchell_00-0039890        1     1     1        0.829        0.829  0.171 
 6 A.O'Connell_00-0038579     584   367     0.628  383.           0.656 -0.0277
 7 A.Richardson_00-0039164    346   176     0.509  209.           0.603 -0.0944
 8 A.Rodgers_00-0023459       585   368     0.629  388.           0.663 -0.0334
 9 A.St. Brown_00-0036963       1     1     1        0.717        0.717  0.283 
10 B.Allen_00-0032434          30    17     0.567   19.7          0.657 -0.0905
# ℹ 131 more rows
…
