Lecture 6: Intro to multilevel modeling – Special Topics: Sports Analytics 36-460/660
…
Lecture 6: Intro to multilevel modeling

Introduction

The goal of this demo is to walk through the initial steps of multilevel modeling in the context of modeling pass completion probability. We’ll continue where we left off in the cpoe.qmd demo, using a dataset corresponding to pass attempts in NFL regular season games during the 2023 and 2024 seasons. You can find the dataset and code to create the data (init_nfl_passing_data.R) on Canvas.

The following code chunk reads in the relevant dataset (assuming it is in the correct directory) of passing plays:

library(tidyverse)
nfl_passing_data <- read_csv(here::here("data/nfl_passing_data.csv"))
nfl_passing_data

# A tibble: 35,987 × 17
   game_id         play_id drive posteam defteam posteam_type passer_name_id    
   <chr>             <dbl> <dbl> <chr>   <chr>   <chr>        <chr>             
 1 2023_01_ARI_WAS      77     1 WAS     ARI     home         S.Howell_00-00370…
 2 2023_01_ARI_WAS     124     1 WAS     ARI     home         S.Howell_00-00370…
 3 2023_01_ARI_WAS     147     1 WAS     ARI     home         S.Howell_00-00370…
 4 2023_01_ARI_WAS     172     1 WAS     ARI     home         S.Howell_00-00370…
 5 2023_01_ARI_WAS     197     1 WAS     ARI     home         S.Howell_00-00370…
 6 2023_01_ARI_WAS     220     1 WAS     ARI     home         S.Howell_00-00370…
 7 2023_01_ARI_WAS     332     2 ARI     WAS     away         J.Dobbs_00-0033949
 8 2023_01_ARI_WAS     357     2 ARI     WAS     away         J.Dobbs_00-0033949
 9 2023_01_ARI_WAS     380     2 ARI     WAS     away         J.Dobbs_00-0033949
10 2023_01_ARI_WAS     526     3 WAS     ARI     home         S.Howell_00-00370…
# ℹ 35,977 more rows
# ℹ 10 more variables: receiver_name_id <chr>, complete_pass <dbl>,
#   pass_location <chr>, air_yards <dbl>, qb_hit <dbl>, epa <dbl>,
#   yardline_100 <dbl>, down <dbl>, ydstogo <dbl>, is_home <dbl>
…
