Lecture 9: Random effects and pooling – Special Topics: Sports Analytics 36-460/660
…
Lecture 9: Random effects and pooling

Introduction

The purpose of this demo is to demonstrate how to access random effect estimates from multilevel models with insight about the behavior of pooling. Building off the previous demos and lecture content, we’ll look at this in the context of modeling the dataset of NFL pass attempts. As a reminder, you can find the dataset and code to create the data (init_nfl_passing_data.R) on Canvas in the demos/week3 folder.

The following code chunk reads in the relevant dataset (assuming it is in the correct directory) of passing plays:

library(tidyverse)
nfl_passing_data <- read_csv(here::here("data/nfl_passing_data.csv"))
nfl_passing_data

# A tibble: 35,987 × 17
   game_id         play_id drive posteam defteam posteam_type passer_name_id    
   <chr>             <dbl> <dbl> <chr>   <chr>   <chr>        <chr>             
 1 2023_01_ARI_WAS      77     1 WAS     ARI     home         S.Howell_00-00370…
 2 2023_01_ARI_WAS     124     1 WAS     ARI     home         S.Howell_00-00370…
 3 2023_01_ARI_WAS     147     1 WAS     ARI     home         S.Howell_00-00370…
 4 2023_01_ARI_WAS     172     1 WAS     ARI     home         S.Howell_00-00370…
 5 2023_01_ARI_WAS     197     1 WAS     ARI     home         S.Howell_00-00370…
 6 2023_01_ARI_WAS     220     1 WAS     ARI     home         S.Howell_00-00370…
 7 2023_01_ARI_WAS     332     2 ARI     WAS     away         J.Dobbs_00-0033949
 8 2023_01_ARI_WAS     357     2 ARI     WAS     away         J.Dobbs_00-0033949
 9 2023_01_ARI_WAS     380     2 ARI     WAS     away         J.Dobbs_00-0033949
10 2023_01_ARI_WAS     526     3 WAS     ARI     home         S.Howell_00-00370…
# ℹ 35,977 more rows
# ℹ 10 more variables: receiver_name_id <chr>, complete_pass <dbl>,
#   pass_location <chr>, air_yards <dbl>, qb_hit <dbl>, epa <dbl>,
#   yardline_100 <dbl>, down <dbl>, ydstogo <dbl>, is_home <dbl>
…
with conditional variances for "passer_name_id" 

You can see this returns a list of the individual effects for each QB. Note, that these values alone are NOT the mean intercept for each QB in the dataset. Instead, you must add the fixed effect intercept to these values to get the QB-specific intercepts.

In order to make a process like that easier, it can be helpful to use the broom.mixed package which has convenient helper functions for tidying the lme4 model output. We can extract the random effects from the model using this package with tidy(lmer_model, effects = "ran_vals"), and store the values in a table:

library(broom.mixed)

Warning: package 'broom.mixed' was built under R version 4.2.3

qb_ranef <- tidy(epa_lmm, effects = "ran_vals")
# View the dataset
qb_ranef

# A tibble: 141 × 6
   effect   group          level                   term       estimate std.error
   <chr>    <chr>          <chr>                   <chr>         <dbl>     <dbl>
 1 ran_vals passer_name_id A.Cole_00-0035190       (Intercep…  0.0261     0.121 
 2 ran_vals passer_name_id A.Dalton_00-0027973     (Intercep… -0.0587     0.0790
 3 ran_vals passer_name_id A.Lazard_00-0034521     (Intercep… -0.00678    0.121 
 4 ran_vals passer_name_id A.McCarron_00-0031288   (Intercep… -0.0218     0.119 
 5 ran_vals passer_name_id A.Mitchell_00-0039890   (Intercep…  0.0145     0.121 
 6 ran_vals passer_name_id A.O'Connell_00-0038579  (Intercep… -0.00854    0.0564
 7 ran_vals passer_name_id A.Richardson_00-0039164 (Intercep… -0.0776     0.0683
 8 ran_vals passer_name_id A.Rodgers_00-0023459    (Intercep…  0.0148     0.0563
 9 ran_vals passer_name_id A.St. Brown_00-0036963  (Intercep…  0.0100     0.121 
10 ran_vals passer_name_id B.Allen_00-0032434      (Intercep… -0.0689     0.111 
# ℹ 131 more rows
…
We can add a column to this table with the intercepts for each QB by simply adding the fixed effect intercept (grabbed with fixef(epa_lmm)) to the estimate column in the dataset above:

qb_ranef <- qb_ranef |>
  mutate(q_intercept = estimate + as.numeric(fixef(epa_lmm)))

qb_ranef

# A tibble: 141 × 7
   effect   group          level            term  estimate std.error q_intercept
   <chr>    <chr>          <chr>            <chr>    <dbl>     <dbl>       <dbl>
 1 ran_vals passer_name_id A.Cole_00-00351… (Int…  0.0261     0.121       0.118 
 2 ran_vals passer_name_id A.Dalton_00-002… (Int… -0.0587     0.0790      0.0335
 3 ran_vals passer_name_id A.Lazard_00-003… (Int… -0.00678    0.121       0.0854
 4 ran_vals passer_name_id A.McCarron_00-0… (Int… -0.0218     0.119       0.0704
 5 ran_vals passer_name_id A.Mitchell_00-0… (Int…  0.0145     0.121       0.107 
 6 ran_vals passer_name_id A.O'Connell_00-… (Int… -0.00854    0.0564      0.0836
 7 ran_vals passer_name_id A.Richardson_00… (Int… -0.0776     0.0683      0.0145
 8 ran_vals passer_name_id A.Rodgers_00-00… (Int…  0.0148     0.0563      0.107 
 9 ran_vals passer_name_id A.St. Brown_00-… (Int…  0.0100     0.121       0.102 
10 ran_vals passer_name_id B.Allen_00-0032… (Int… -0.0689     0.111       0.0233
# ℹ 131 more rows
…
Residual standard error: 1.538 on 35846 degrees of freedom
Multiple R-squared:  0.01868,   Adjusted R-squared:  0.01482 
F-statistic:  4.84 on 141 and 35846 DF,  p-value: < 2.2e-16

We can use the broom package to quickly grab a table of the QB coefficients:

library(broom)
qb_naive_coefs <- tidy(naive_epa_lm)
qb_naive_coefs

# A tibble: 141 × 5
   term                                  estimate std.error statistic p.value
   <chr>                                    <dbl>     <dbl>     <dbl>   <dbl>
 1 passer_name_idA.Cole_00-0035190        4.33       1.54      2.82   0.00483
 2 passer_name_idA.Dalton_00-0027973     -0.00998    0.104    -0.0958 0.924  
 3 passer_name_idA.Lazard_00-0034521     -1.01       1.54     -0.657  0.511  
 4 passer_name_idA.McCarron_00-0031288   -0.635      0.688    -0.924  0.356  
 5 passer_name_idA.Mitchell_00-0039890    2.45       1.54      1.59   0.112  
 6 passer_name_idA.O'Connell_00-0038579   0.0813     0.0636    1.28   0.202  
 7 passer_name_idA.Richardson_00-0039164 -0.0217     0.0827   -0.263  0.793  
 8 passer_name_idA.Rodgers_00-0023459     0.111      0.0636    1.75   0.0808 
 9 passer_name_idA.St. Brown_00-0036963   1.72       1.54      1.12   0.262  
10 passer_name_idB.Allen_00-0032434      -0.348      0.281    -1.24   0.215  
# ℹ 131 more rows

In order to make a plot comparing the coefficients, we can make a modified version of this table containing a column with the passer_name_id and fixed effect version for coefficients:

qb_fixed_eff <- qb_naive_coefs |>
  dplyr::select(term, estimate) |>
  # Remove the `passer_name_id` in the strings
  mutate(term = str_remove(term, "passer_name_id")) |>
  rename(passer_name_id = term,
         fixed_eff = estimate)

qb_fixed_eff

# A tibble: 141 × 2
   passer_name_id          fixed_eff
   <chr>                       <dbl>
 1 A.Cole_00-0035190         4.33   
 2 A.Dalton_00-0027973      -0.00998
 3 A.Lazard_00-0034521      -1.01   
 4 A.McCarron_00-0031288    -0.635  
 5 A.Mitchell_00-0039890     2.45   
 6 A.O'Connell_00-0038579    0.0813 
 7 A.Richardson_00-0039164  -0.0217 
 8 A.Rodgers_00-0023459      0.111  
 9 A.St. Brown_00-0036963    1.72   
10 B.Allen_00-0032434       -0.348  
# ℹ 131 more rows

We can now join this table of fixed effect QB estimates to the table containing the random effects via a join function (such as left_join() or inner_join() but my default behavior is to typically use left_join()):

qb_ranef <- qb_ranef |>
  left_join(qb_fixed_eff,
            by = c("level" = "passer_name_id"))
qb_ranef

# A tibble: 141 × 8
   effect   group          level  term  estimate std.error q_intercept fixed_eff
   <chr>    <chr>          <chr>  <chr>    <dbl>     <dbl>       <dbl>     <dbl>
 1 ran_vals passer_name_id A.Col… (Int…  0.0261     0.121       0.118    4.33   
 2 ran_vals passer_name_id A.Dal… (Int… -0.0587     0.0790      0.0335  -0.00998
 3 ran_vals passer_name_id A.Laz… (Int… -0.00678    0.121       0.0854  -1.01   
 4 ran_vals passer_name_id A.McC… (Int… -0.0218     0.119       0.0704  -0.635  
 5 ran_vals passer_name_id A.Mit… (Int…  0.0145     0.121       0.107    2.45   
 6 ran_vals passer_name_id A.O'C… (Int… -0.00854    0.0564      0.0836   0.0813 
 7 ran_vals passer_name_id A.Ric… (Int… -0.0776     0.0683      0.0145  -0.0217 
 8 ran_vals passer_name_id A.Rod… (Int…  0.0148     0.0563      0.107    0.111  
 9 ran_vals passer_name_id A.St.… (Int…  0.0100     0.121       0.102    1.72   
10 ran_vals passer_name_id B.All… (Int… -0.0689     0.111       0.0233  -0.348  
# ℹ 131 more rows
…
Correlation of Fixed Effects:
          (Intr)
air_yards -0.342

Similar to before, we can grab the random intercepts for each passer:

upd_qb_ranef <- tidy(air_epa_lmm, effects = "ran_vals")
# View the dataset
upd_qb_ranef

# A tibble: 141 × 6
   effect   group          level                   term       estimate std.error
   <chr>    <chr>          <chr>                   <chr>         <dbl>     <dbl>
 1 ran_vals passer_name_id A.Cole_00-0035190       (Intercep…  0.0258     0.119 
 2 ran_vals passer_name_id A.Dalton_00-0027973     (Intercep… -0.0519     0.0781
 3 ran_vals passer_name_id A.Lazard_00-0034521     (Intercep… -0.00757    0.119 
 4 ran_vals passer_name_id A.McCarron_00-0031288   (Intercep… -0.0167     0.117 
 5 ran_vals passer_name_id A.Mitchell_00-0039890   (Intercep…  0.0155     0.119 
 6 ran_vals passer_name_id A.O'Connell_00-0038579  (Intercep… -0.00814    0.0559
 7 ran_vals passer_name_id A.Richardson_00-0039164 (Intercep… -0.118      0.0676
 8 ran_vals passer_name_id A.Rodgers_00-0023459    (Intercep…  0.0254     0.0558
 9 ran_vals passer_name_id A.St. Brown_00-0036963  (Intercep…  0.0101     0.119 
10 ran_vals passer_name_id B.Allen_00-0032434      (Intercep… -0.0684     0.109 
# ℹ 131 more rows
…
