Lecture 10: Uncertainty about random effects – Special Topics: Sports Analytics 36-460/660
…
Lecture 10: Uncertainty about random effects

Introduction

The purpose of this demo is to walk through how to access and generate different estimates of uncertainty about the random effects from multilevel models. This will be our last demo with the NFL passing data, as we’ll consider the random effects in the context of modeling completion probability. As a reminder, you can find the dataset and code to create the data (init_nfl_passing_data.R) on Canvas in the demos/week3 folder.

The following code chunk reads in the relevant dataset (assuming it is in the correct directory) of passing plays:

library(tidyverse)
nfl_passing_data <- read_csv(here::here("data/nfl_passing_data.csv"))
nfl_passing_data

# A tibble: 35,987 × 17
   game_id         play_id drive posteam defteam posteam_type passer_name_id    
   <chr>             <dbl> <dbl> <chr>   <chr>   <chr>        <chr>             
 1 2023_01_ARI_WAS      77     1 WAS     ARI     home         S.Howell_00-00370…
 2 2023_01_ARI_WAS     124     1 WAS     ARI     home         S.Howell_00-00370…
 3 2023_01_ARI_WAS     147     1 WAS     ARI     home         S.Howell_00-00370…
 4 2023_01_ARI_WAS     172     1 WAS     ARI     home         S.Howell_00-00370…
 5 2023_01_ARI_WAS     197     1 WAS     ARI     home         S.Howell_00-00370…
 6 2023_01_ARI_WAS     220     1 WAS     ARI     home         S.Howell_00-00370…
 7 2023_01_ARI_WAS     332     2 ARI     WAS     away         J.Dobbs_00-0033949
 8 2023_01_ARI_WAS     357     2 ARI     WAS     away         J.Dobbs_00-0033949
 9 2023_01_ARI_WAS     380     2 ARI     WAS     away         J.Dobbs_00-0033949
10 2023_01_ARI_WAS     526     3 WAS     ARI     home         S.Howell_00-00370…
# ℹ 35,977 more rows
# ℹ 10 more variables: receiver_name_id <chr>, complete_pass <dbl>,
#   pass_location <chr>, air_yards <dbl>, qb_hit <dbl>, epa <dbl>,
#   yardline_100 <dbl>, down <dbl>, ydstogo <dbl>, is_home <dbl>
…
We can access the full table of random effects using the broom.mixed package again. The following code chunk extracts the three groups of random effects, as designated by the group column:

library(broom.mixed)

Warning: package 'broom.mixed' was built under R version 4.2.3

group_raneff <- tidy(full_pass_glmm, effects = "ran_vals")
# View the dataset
group_raneff

# A tibble: 802 × 6
   effect   group            level                 term       estimate std.error
   <chr>    <chr>            <chr>                 <chr>         <dbl>     <dbl>
 1 ran_vals receiver_name_id A.Abdullah_00-0032104 (Intercep…  8.01e-2     0.125
 2 ran_vals receiver_name_id A.Armah_00-0033296    (Intercep…  1.07e-2     0.138
 3 ran_vals receiver_name_id A.Bachman_00-0035602  (Intercep…  1.87e-2     0.138
 4 ran_vals receiver_name_id A.Barner_00-0039793   (Intercep…  2.23e-2     0.131
 5 ran_vals receiver_name_id A.Beck_00-0034959     (Intercep…  7.95e-4     0.135
 6 ran_vals receiver_name_id A.Brown_00-0035676    (Intercep…  7.43e-2     0.105
 7 ran_vals receiver_name_id A.Cooper_00-0031544   (Intercep… -5.12e-2     0.103
 8 ran_vals receiver_name_id A.Dillon_00-0036265   (Intercep…  5.47e-3     0.133
 9 ran_vals receiver_name_id A.Dulin_00-0035021    (Intercep… -3.37e-2     0.136
10 ran_vals receiver_name_id A.Ekeler_00-0033699   (Intercep… -7.71e-2     0.119
# ℹ 792 more rows
…
We’re now going to proceed to quantify the uncertainty of the random effect estimates using bootstrapping (i.e., resampling). This procedure requires careful recognition of the sources of variability in player and team performances. We can NOT simply resample pass attempts to construct a new dataset. If we think about the course of a football season, the schedule is fixed. In other words, any resampling procedure we consider must preserve the schedule that each player and team plays in each resampled dataset - with the same number of games and opponents. If we naively resampled at the observation level without thinking about this structure, we would observe impossible datasets that do not reflect the target source of variability that we’re interested in.

Instead, we need to resample the plays that take place within a particular game/match-up between two teams. You can think of this as attempting to replay a game over again and observing different performances and outcomes. But given the nature of football plays, we should not just resample plays within games either! Instead, we want our simulated datasets to capture the wide range of context that different plays can take place in. The simplest way to capture this structure, as well as any dependency between plays, is by resampling collections of plays at the drive level. A single iteration of resampling the dataset involves: going through each game and resampling the drives for each team (to ensure that each team has the same number of drives as observed). There are other ways to resample, this is just one approach that tries to account for the game structure.

In order to implement this, we first need to set-up a dataset of the games and drives for each team. One efficient way to do this, is to construct a nested dataset at the game-team-drive level. A nested dataset will contain “one row” for game-team-drive combination, but within that “row” will be all plays corresponding to that game-team-drive. The following code chunk uses the nest() function to collapse the nfl_passing_data into a dataset at this combination level. (NOTE: this may not account for all possible drives in case there are drives without pass attempts - however I’m just being lazy in the set-up of this to only rely on the nfl_passing_data in this demo.) This will make the process of resampling plays much easier:

game_team_drives <- nfl_passing_data |>
  # First group by the three variables of interest:
  group_by(game_id, posteam, drive) |>
  # Now nest the data
  nest() |>
  ungroup()
game_team_drives

# A tibble: 10,585 × 4
   game_id         drive posteam data             
   <chr>           <dbl> <chr>   <list>           
 1 2023_01_ARI_WAS     1 WAS     <tibble [6 × 14]>
 2 2023_01_ARI_WAS     2 ARI     <tibble [3 × 14]>
 3 2023_01_ARI_WAS     3 WAS     <tibble [3 × 14]>
 4 2023_01_ARI_WAS     4 ARI     <tibble [4 × 14]>
 5 2023_01_ARI_WAS     5 WAS     <tibble [1 × 14]>
 6 2023_01_ARI_WAS     6 ARI     <tibble [2 × 14]>
 7 2023_01_ARI_WAS     7 WAS     <tibble [3 × 14]>
 8 2023_01_ARI_WAS     9 WAS     <tibble [2 × 14]>
 9 2023_01_ARI_WAS    10 ARI     <tibble [3 × 14]>
10 2023_01_ARI_WAS    11 WAS     <tibble [3 × 14]>
# ℹ 10,575 more rows
…
