Lecture 12: Beta-Binomial model for Caitlin Clark’s rookie season – Special Topics: Sports Analytics 36-460/660
…
The purpose of this demo is to walk through the Beta-Binomial Bayesian model for Caitlin Clark’s field goal percentage (FG%). We previously considered a discrete prior distribution for her probability of making a field goal \(\pi\). In this demo, we’re going to replace the discrete prior with a continuous Beta distribution. This will provide us with a foundational example of using conjugate priors in Bayesian statistics. Although we are only considering Caitlin Clark’s FG% in this demo, this type of example can be applied to a wide variety of problems in sports that are based on considering some type of success out of a number of trials.

We will use two datasets in this demo: (1) season statistics WNBA players during the 2024 season and (2) a game log of Caitlin Clark’s statistics in her rookie WNBA season. Both of these files were created using the init_clark_wnba_game_log.R script located in the demos/week6 folder on Canvas. The following code chunk reads in data (assuming they are in the correct directory):

library(tidyverse)

wnba_player_stats <- read_csv(here::here("data/wnba_player_stats_2024.csv"))
clark_game_log <- 
  read_csv(here::here("data/caitlin_clark_wnba_game_log_2024.csv"))

# View a preview of the datasets:
wnba_player_stats

# A tibble: 158 × 8
   athlete_id athlete_display_name school  minutes fg_made fg_att position
        <dbl> <chr>                <chr>     <dbl>   <dbl>  <dbl> <chr>   
 1        585 Diana Taurasi        Mercury    1122     188    465 G       
 2        869 DeWanna Bonner       Sun        1523     250    608 F       
 3        887 Sami Whitcomb        Storm       613      72    209 G       
 4        918 Tina Charles         Dream      1218     255    556 C       
 5        924 Alysha Clark         Aces       1129      97    225 F       
 6        981 Courtney Vandersloot Liberty     862     103    234 G       
 7       1004 Sydney Colson        Aces        275      28     71 G       
 8       1054 Tiffany Hayes        Aces        843     132    263 G       
 9       1068 Nneka Ogwumike       Storm      1275     270    536 F       
10    2284331 Emma Cannon          Aces         10       2      3 F       
# ℹ 148 more rows
# ℹ 1 more variable: fg_percentage <dbl>

clark_game_log

# A tibble: 43 × 7
     game_id game_date  minutes field_goals_made field_goals_attempted
       <dbl> <date>       <dbl>            <dbl>                 <dbl>
 1 401721254 2024-09-25      40               10                    23
 2 401721253 2024-09-22      36                4                    17
 3 401620454 2024-09-19      20                2                     5
 4 401620441 2024-09-15      36               10                    22
 5 401620437 2024-09-13      34                7                    18
 6 401620432 2024-09-11      38                6                    22
 7 401620425 2024-09-08      45                7                    17
 8 401620421 2024-09-06      36                8                    21
 9 401620416 2024-09-04      40                8                    17
10 401620409 2024-09-01      37               10                    19
# ℹ 33 more rows
# ℹ 2 more variables: opponent_team_display_name <chr>, fg_percentage <dbl>
…
  # And now update the posterior:
  clark_game_log$posterior_alpha[i] <- clark_game_log$prior_alpha[i] +
    clark_game_log$field_goals_made[i]
  clark_game_log$posterior_beta[i] <- clark_game_log$prior_beta[i] +
    clark_game_log$field_goals_attempted[i] - clark_game_log$field_goals_made[i]
}

You can view the updating of the parameters from viewing the table:

clark_game_log

# A tibble: 43 × 11
     game_id game_date  minutes field_goals_made field_goals_attempted
       <dbl> <date>       <dbl>            <dbl>                 <dbl>
 1 401620219 2024-05-14      32                5                    15
 2 401620224 2024-05-16      30                2                     8
 3 401620227 2024-05-18      34                9                    17
 4 401620232 2024-05-20      27                5                    11
 5 401620237 2024-05-22      33                6                    16
 6 401620241 2024-05-24      37                4                    14
 7 401620244 2024-05-25      29                2                     8
 8 401620250 2024-05-28      34                7                    16
 9 401620255 2024-05-30      40                6                    17
10 401620261 2024-06-01      37                4                    11
# ℹ 33 more rows
# ℹ 6 more variables: opponent_team_display_name <chr>, fg_percentage <dbl>,
#   prior_alpha <dbl>, prior_beta <dbl>, posterior_alpha <dbl>,
#   posterior_beta <dbl>
…
