Lecture 13: Introduction to Regularized Adjusted Plus-Minus (RAPM) – Special Topics: Sports Analytics 36-460/660
…
Lecture 13: Introduction to Regularized Adjusted Plus-Minus (RAPM)

Introduction

The purpose of this demo is to walk through the basics of building a regularized adjusted plus-minus (RAPM) model to estimate the impact of basketball players when they are on the court, while adjusting for the quality of their teammates and opponents. We will use a dataset that is already in the wide design matrix form with indicator columns for every player that was observed during the regular season. You can find the script (init_nba_rapm_data.R) for initializing this dataset on Canvas using the hoopR package.

The following code chunk reads in the wide data (assuming it is in the correct directory):

library(tidyverse)

# Load the data
nba_rapm_data <- read_csv(here::here("data/nba_2324_season_rapm_data.csv.gz"))
nba_rapm_data

# A tibble: 31,885 × 579
   game_id    stint_id n_pos home_points away_points minutes  margin `203484`
   <chr>         <dbl> <dbl>       <dbl>       <dbl>   <dbl>   <dbl>    <dbl>
 1 0022300061        1    27          20          16   5.88    14.8         1
 2 0022300061        2    14           9           2   3.29    50           1
 3 0022300061        3     8           2           2   2.16     0           0
 4 0022300061        4    11          11           4   3.2     63.6         0
 5 0022300061        6     2           0           2   0.400 -100           1
 6 0022300061        7     7           3           6   1.55   -42.9         1
 7 0022300061        8     2           2           0   0.25   100           1
 8 0022300061        9    12           7           8   2.43    -8.33        1
 9 0022300061       10     9           6           6   1.76     0           1
10 0022300061       11    34          15          19   7.39   -11.8         1
# ℹ 31,875 more rows
# ℹ 571 more variables: `203932` <dbl>, `203999` <dbl>, `1627750` <dbl>,
#   `1629008` <dbl>, `202704` <dbl>, `1630192` <dbl>, `1631128` <dbl>,
#   `1631212` <dbl>, `1629618` <dbl>, `1630296` <dbl>, `1631221` <dbl>,
#   `101108` <dbl>, `201939` <dbl>, `202691` <dbl>, `203952` <dbl>,
#   `1626172` <dbl>, `1630228` <dbl>, `203967` <dbl>, `1627780` <dbl>,
#   `1630541` <dbl>, `202709` <dbl>, `1628380` <dbl>, `1629640` <dbl>, …
…
# Fit the model (notice we do not include an intercept term)
rosenbaum_model <- lm(score_diff ~ 0 + ., data = nba_apm_model_data,
                      weights = nba_rapm_data$n_pos)

We’re not going to view the summary of this model since it is a bit of a mess. Instead, we’ll take advantage of the broom package to view the coefficients:

library(broom)
rosenbaum_coef <- tidy(rosenbaum_model)
rosenbaum_coef

# A tibble: 572 × 5
   term      estimate std.error statistic p.value
   <chr>        <dbl>     <dbl>     <dbl>   <dbl>
 1 `203484`     1.58       1.74     0.911   0.362
 2 `203932`     1.26       1.74     0.725   0.469
 3 `203999`     1.92       1.75     1.10    0.273
 4 `1627750`    1.58       1.74     0.909   0.363
 5 `1629008`    1.27       1.74     0.732   0.464
 6 `202704`     1.08       1.74     0.622   0.534
 7 `1630192`    0.392      1.77     0.222   0.825
 8 `1631128`    1.18       1.74     0.682   0.495
 9 `1631212`    0.851      1.74     0.489   0.625
10 `1629618`    1.00       1.86     0.537   0.591
# ℹ 562 more rows
…
nba_player_table <- read_csv(here::here("data/nba_2324_player_table.csv"))

Rows: 572 Columns: 2
── Column specification ────────────────────────────────────────────────────────
Delimiter: ","
chr (1): player_name
dbl (1): player_id

ℹ Use `spec()` to retrieve the full column specification for this data.
ℹ Specify the column types or set `show_col_types = FALSE` to quiet this message.

nba_player_table

# A tibble: 572 × 2
   player_id player_name             
       <dbl> <chr>                   
 1   1630173 Precious Achiuwa        
 2   1628389 Bam Adebayo             
 3   1630534 Ochai Agbaji            
 4   1630583 Santi Aldama            
 5   1629638 Nickeil Alexander-Walker
 6   1628960 Grayson Allen           
 7   1628386 Jarrett Allen           
 8   1641851 Timmy Allen             
 9   1630631 Jose Alvarado           
10    203937 Kyle Anderson           
# ℹ 562 more rows

You’ll notice that this matches the number of rows as the rosenbaum_coef table. But we first need to modify the term column by removing the back-tick symbols and then converting the IDs to numeric values before joining:

rosenbaum_coef <- rosenbaum_coef |>
  # First convert the term column to numeric:
  mutate(term = as.numeric(str_remove_all(term, "`"))) |>
  # Now join the player names:
  left_join(nba_player_table, by = c("term" = "player_id"))
rosenbaum_coef

# A tibble: 572 × 6
      term estimate std.error statistic p.value player_name             
     <dbl>    <dbl>     <dbl>     <dbl>   <dbl> <chr>                   
 1  203484    1.58       1.74     0.911   0.362 Kentavious Caldwell-Pope
 2  203932    1.26       1.74     0.725   0.469 Aaron Gordon            
 3  203999    1.92       1.75     1.10    0.273 Nikola Jokić            
 4 1627750    1.58       1.74     0.909   0.363 Jamal Murray            
 5 1629008    1.27       1.74     0.732   0.464 Michael Porter Jr.      
 6  202704    1.08       1.74     0.622   0.534 Reggie Jackson          
 7 1630192    0.392      1.77     0.222   0.825 Zeke Nnaji              
 8 1631128    1.18       1.74     0.682   0.495 Christian Braun         
 9 1631212    0.851      1.74     0.489   0.625 Peyton Watson           
10 1629618    1.00       1.86     0.537   0.591 Jalen Pickett           
# ℹ 562 more rows
…
Using the broom package again, we can again make a tidy table of the coefficients for each player:

tidy_ridge_coef <- tidy(fit_ridge_cv$glmnet.fit)
tidy_ridge_coef

# A tibble: 57,200 × 5
   term    step estimate lambda dev.ratio
   <chr>  <dbl>    <dbl>  <dbl>     <dbl>
 1 203484     1 2.39e-37   351.  2.01e-39
 2 203484     2 5.15e- 2   320.  4.25e- 4
 3 203484     3 5.56e- 2   291.  4.62e- 4
 4 203484     4 6.09e- 2   265.  5.05e- 4
 5 203484     5 6.67e- 2   242.  5.52e- 4
 6 203484     6 7.30e- 2   220.  6.03e- 4
 7 203484     7 7.98e- 2   201.  6.59e- 4
 8 203484     8 8.73e- 2   183.  7.20e- 4
 9 203484     9 9.55e- 2   167.  7.85e- 4
10 203484    10 1.04e- 1   152.  8.57e- 4
# ℹ 57,190 more rows
…
