Lecture 14: Methods for Approximating the Posterior – Special Topics: Sports Analytics 36-460/660
…
Grid Approximation

We’ll first consider grid approximation, which proceeds in the following manner:

Step 1: define a grid of possible parameter values

The code chunk below sets up an initial grid of possible values for \(\pi\). There are technically an infinite number of values for \(\pi \in (0, 1)\), so it is ideal to produce a grid containing as many values as possible - but there is a computational trade-off at play. A larger grid will take longer to work with, but lead to a better approximation of the posterior. For demonstration purposes, we’ll consider a grid of 101 values:

library(tidyverse)

# Step 1: Define a grid of 101 pi values
grid_data <- tibble(pi = seq(from = 0, to = 1, length = 101))
grid_data

# A tibble: 101 × 1
      pi
   <dbl>
 1  0   
 2  0.01
 3  0.02
 4  0.03
 5  0.04
 6  0.05
 7  0.06
 8  0.07
 9  0.08
10  0.09
# ℹ 91 more rows

Step 2: evaluate prior and likelihood at each parameter value in grid

Next, the code chunk below adds columns to the grid_data table that are the values for the prior and likelihood for each \(\pi\) in the grid above:

# Step 2: Evaluate the prior and likelihood at each pi
grid_data <- grid_data |>
  mutate(prior = dbeta(pi, 45.9, 68.7), likelihood = dbinom(33, 85, pi))
grid_data

# A tibble: 101 × 3
      pi    prior likelihood
   <dbl>    <dbl>      <dbl>
 1  0    0          0       
 2  0.01 5.38e-57   2.39e-43
 3  0.02 8.88e-44   1.21e-33
 4  0.03 3.58e-36   4.59e-28
 5  0.04 7.22e-31   3.55e-24
 6  0.05 7.98e-27   3.25e-21
 7  0.06 1.40e-23   7.69e-19
 8  0.07 6.88e-21   7.14e-17
 9  0.08 1.33e-18   3.34e-15
10  0.09 1.26e-16   9.22e-14
# ℹ 91 more rows
…
