Lecture 15: Introduction to Stan – Special Topics: Sports Analytics 36-460/660
…
We can see that the posterior approximation is pretty close to the true posterior density, with just a slight difference in the center relative to the true red line. Otherwise, this is a pretty solid approximation that we should feel comfortable using.

We can easily create a tidy table of the posterior sample using the as.data.frame() function with the parameters we want as input in pars. In this case, we only want the pi parameter (and can ignore the log-posterior values that are reported) and then turn it into a tbl object for ease. By default, this concatenates the samples from the four different Markov chains resulting in a complete table of 20,000 rows:

posterior_sample <- as.data.frame(beta_binomial_sim, pars = "pi") |>
  as_tibble()

posterior_sample

# A tibble: 20,000 × 1
      pi
   <dbl>
 1 0.408
 2 0.340
 3 0.367
 4 0.419
 5 0.392
 6 0.323
 7 0.355
 8 0.412
 9 0.379
10 0.383
# ℹ 19,990 more rows
…
