Lecture 16: Bayesian RAPM in Stan – Special Topics: Sports Analytics 36-460/660
…
Lecture 16: Bayesian RAPM in Stan

Introduction

The purpose of this demo is demonstrate how to fit and examine the posterior distributions for a Bayesian regularized adjusted plus-minus (RAPM) model, in order to estimate the impact of basketball players when they are on the court, while adjusting for the quality of their teammates and opponents. We will use the same dataset from the intro_rapm.qmd demo. As a reminder, you can find the script (init_nba_rapm_data.R) for initializing this dataset on Canvas using the hoopR package.

The following code chunk reads in the wide data (assuming it is in the correct directory):

library(tidyverse)

# Load the data
nba_rapm_data <- read_csv(here::here("data/nba_2324_season_rapm_data.csv.gz"))
nba_rapm_data

# A tibble: 31,885 × 579
   game_id    stint_id n_pos home_points away_points minutes  margin `203484`
   <chr>         <dbl> <dbl>       <dbl>       <dbl>   <dbl>   <dbl>    <dbl>
 1 0022300061        1    27          20          16   5.88    14.8         1
 2 0022300061        2    14           9           2   3.29    50           1
 3 0022300061        3     8           2           2   2.16     0           0
 4 0022300061        4    11          11           4   3.2     63.6         0
 5 0022300061        6     2           0           2   0.400 -100           1
 6 0022300061        7     7           3           6   1.55   -42.9         1
 7 0022300061        8     2           2           0   0.25   100           1
 8 0022300061        9    12           7           8   2.43    -8.33        1
 9 0022300061       10     9           6           6   1.76     0           1
10 0022300061       11    34          15          19   7.39   -11.8         1
# ℹ 31,875 more rows
# ℹ 571 more variables: `203932` <dbl>, `203999` <dbl>, `1627750` <dbl>,
#   `1629008` <dbl>, `202704` <dbl>, `1630192` <dbl>, `1631128` <dbl>,
#   `1631212` <dbl>, `1629618` <dbl>, `1630296` <dbl>, `1631221` <dbl>,
#   `101108` <dbl>, `201939` <dbl>, `202691` <dbl>, `203952` <dbl>,
#   `1626172` <dbl>, `1630228` <dbl>, `203967` <dbl>, `1627780` <dbl>,
#   `1630541` <dbl>, `202709` <dbl>, `1628380` <dbl>, `1629640` <dbl>, …
…
The strange behavior of this distribution is discussed in lecture…

Posterior analysis

We’re now ready to examine the posterior distributions for the parameters. First, we’ll create a simple, tidy table that has one column for each parameter (excluding Stan’s reported log posterior density). The following code chunk sets up this table with 10,000 rows (one for each sample) and 574 columns (one for each parameter):

posterior_sample <- as.data.frame(bayes_ridge_rapm_fit, pars = "lp__", include = FALSE) |>
  as_tibble()

posterior_sample

# A tibble: 10,000 × 574
   sigma_shifts sigma_players `beta[1]` `beta[2]` `beta[3]` `beta[4]` `beta[5]`
          <dbl>         <dbl>     <dbl>     <dbl>     <dbl>     <dbl>     <dbl>
 1         69.7          2.10    0.773     0.731       2.88     2.09      0.708
 2         69.7          2.08    0.258    -1.65        5.31     1.95      0.663
 3         70.0          2.09    4.35     -1.13        1.94    -1.92      1.39 
 4         69.7          2.15   -0.626     0.0126      6.30     3.16     -1.17 
 5         70.0          2.17    4.60     -0.886       2.24    -1.73      1.15 
 6         69.8          2.32    2.72     -0.538       6.43     0.561     2.68 
 7         69.8          2.27    2.40     -0.874       6.31     0.950    -2.05 
 8         70.0          2.18   -0.0970    0.113       6.13     0.601     2.57 
 9         70.1          2.19    2.65     -1.52        6.70     2.17      1.22 
10         70.2          2.28    2.79     -1.22        6.14     1.34      0.488
# ℹ 9,990 more rows
# ℹ 567 more variables: `beta[6]` <dbl>, `beta[7]` <dbl>, `beta[8]` <dbl>,
#   `beta[9]` <dbl>, `beta[10]` <dbl>, `beta[11]` <dbl>, `beta[12]` <dbl>,
#   `beta[13]` <dbl>, `beta[14]` <dbl>, `beta[15]` <dbl>, `beta[16]` <dbl>,
#   `beta[17]` <dbl>, `beta[18]` <dbl>, `beta[19]` <dbl>, `beta[20]` <dbl>,
#   `beta[21]` <dbl>, `beta[22]` <dbl>, `beta[23]` <dbl>, `beta[24]` <dbl>,
#   `beta[25]` <dbl>, `beta[26]` <dbl>, `beta[27]` <dbl>, `beta[28]` <dbl>, …
…
ℹ Use `spec()` to retrieve the full column specification for this data.
ℹ Specify the column types or set `show_col_types = FALSE` to quiet this message.

# Now create a long player posterior sample and join the player names:
long_player_posterior_samples <- player_posterior_samples |>
  pivot_longer(cols = everything(),
               names_to = "player_id",
               values_to = "beta") |>
  mutate(player_id = as.numeric(player_id)) |>
  left_join(nba_player_table, by = c("player_id"))
long_player_posterior_samples

# A tibble: 5,720,000 × 3
   player_id    beta player_name             
       <dbl>   <dbl> <chr>                   
 1    203484  0.773  Kentavious Caldwell-Pope
 2    203932  0.731  Aaron Gordon            
 3    203999  2.88   Nikola Jokić            
 4   1627750  2.09   Jamal Murray            
 5   1629008  0.708  Michael Porter Jr.      
 6    202704  2.83   Reggie Jackson          
 7   1630192 -3.79   Zeke Nnaji              
 8   1631128 -1.13   Christian Braun         
 9   1631212 -0.0339 Peyton Watson           
10   1629618  0.310  Jalen Pickett           
# ℹ 5,719,990 more rows

With this long table, we can once again compute various summaries such as the posterior mean and 80% credible intervals for each player:

player_summary <- long_player_posterior_samples |>
  group_by(player_id, player_name) |>
  summarize(posterior_mean = mean(beta), 
            posterior_median = median(beta),
            # 80% credible interval:
            lower_80 = quantile(beta, 0.1),
            upper_80 = quantile(beta, 0.9),
            .groups = "drop") |>
  arrange(desc(posterior_mean))
player_summary

# A tibble: 572 × 6
   player_id player_name       posterior_mean posterior_median lower_80 upper_80
       <dbl> <chr>                      <dbl>            <dbl>    <dbl>    <dbl>
 1    203999 Nikola Jokić                4.88             4.81    2.58      7.28
 2   1629029 Luka Dončić                 4.49             4.45    2.30      6.76
 3   1628973 Jalen Brunson               4.28             4.25    2.02      6.55
 4    203954 Joel Embiid                 3.72             3.68    1.32      6.18
 5   1626164 Devin Booker                3.59             3.55    1.39      5.82
 6   1626157 Karl-Anthony Tow…           3.50             3.49    1.25      5.80
 7   1628374 Lauri Markkanen             3.38             3.35    1.02      5.75
 8   1630198 Isaiah Joe                  3.05             3.03    0.823     5.29
 9   1630581 Josh Giddey                 3.01             3.00    0.754     5.29
10   1628401 Derrick White               2.93             2.92    0.635     5.29
# ℹ 562 more rows
…
