Lecture 18: Modeling team ratings and posterior predictions – Special Topics: Sports Analytics 36-460/660
…
is_home: binary indicator denoting whether or not the team was the home team in the match.

Note that each row in this dataset corresponds to information about a team’s offensive performance for a single match. This means a team is repeatedly observed for each match they played during the 2023-2024 season. I constructed this dataset using the worldfootballR package, and the script init_soccer_match_goals.R on Canvas is the code I used to make the dataset.

The code chunk below loads in the data, and then for ease we’ll only consider matches in the Premier League (i.e., league == ENG).

library(tidyverse)
match_goals_scored <- read_csv(here::here("data/soccer_match_goals.csv"))

# Create the ENG only table:
eng_match_goals_scored <- match_goals_scored |>
  filter(league == "ENG")
eng_match_goals_scored

# A tibble: 760 × 7
   goals    xG off_team       def_team        league match_id is_home
   <dbl> <dbl> <chr>          <chr>           <chr>     <dbl>   <dbl>
 1     0   0.3 Burnley        Manchester City ENG           1       1
 2     2   0.8 Arsenal        Nott'ham Forest ENG           2       1
 3     0   2.7 Everton        Fulham          ENG           3       1
 4     0   0.5 Sheffield Utd  Crystal Palace  ENG           4       1
 5     4   4   Brighton       Luton Town      ENG           5       1
 6     1   1.3 Bournemouth    West Ham        ENG           6       1
 7     5   3.3 Newcastle Utd  Aston Villa     ENG           7       1
 8     2   2.2 Brentford      Tottenham       ENG           8       1
 9     1   1.4 Chelsea        Liverpool       ENG           9       1
10     1   2.2 Manchester Utd Wolves          ENG          10       1
# ℹ 750 more rows
…
------
* For help interpreting the printed output see ?print.stanreg
* For info on the priors used see ?prior_summary.stanreg

You can see that the display here is fairly similar to the output from lme4, with slightly different values. However, the key difference is we have access to posterior samples for all of parameters. We can grab such posterior samples in a similar to the rstan output:

posterior_sample <- as.data.frame(team_goals_model) |> as_tibble()
posterior_sample

# A tibble: 4,000 × 44
   `(Intercept)` is_home b[(Intercept) off_team:Arsenal…¹ b[(Intercept) off_te…²
           <dbl>   <dbl>                            <dbl>                  <dbl>
 1         0.335   0.180                            0.233                 0.207 
 2         0.288   0.287                            0.366                -0.0537
 3         0.226   0.271                            0.359                 0.250 
 4         0.454   0.123                            0.343                 0.173 
 5         0.394   0.164                            0.327                 0.176 
 6         0.469   0.157                            0.185                 0.232 
 7         0.474   0.204                            0.256                 0.274 
 8         0.449   0.225                            0.372                 0.137 
 9         0.468   0.209                            0.246                 0.0665
10         0.531   0.189                            0.294                 0.116 
# ℹ 3,990 more rows
# ℹ abbreviated names: ¹​`b[(Intercept) off_team:Arsenal]`,
#   ²​`b[(Intercept) off_team:Aston_Villa]`
# ℹ 40 more variables: `b[(Intercept) off_team:Bournemouth]` <dbl>,
#   `b[(Intercept) off_team:Brentford]` <dbl>,
#   `b[(Intercept) off_team:Brighton]` <dbl>,
#   `b[(Intercept) off_team:Burnley]` <dbl>, …
…
# A tibble: 1 × 3
  off_team def_team  is_home
  <chr>    <chr>       <dbl>
1 Chelsea  Liverpool       1

In order to predictions for this game, we will need to use the posterior distribution samples for these parameters of interest. Remember we have 4,000 samples quantifying the uncertainty about these parameters:

chelsea_liverpool_samples <- posterior_sample |>
  dplyr::select(`(Intercept)`, `is_home`, `b[(Intercept) off_team:Chelsea]`,
                `b[(Intercept) def_team:Liverpool]`) |>
  # Clean up the column names for ease:
  janitor::clean_names()
chelsea_liverpool_samples

# A tibble: 4,000 × 4
   intercept is_home b_intercept_off_team_chelsea b_intercept_def_team_liverpool
       <dbl>   <dbl>                        <dbl>                          <dbl>
 1     0.335   0.180                       0.306                          -0.314
 2     0.288   0.287                       0.140                          -0.189
 3     0.226   0.271                       0.0235                         -0.140
 4     0.454   0.123                       0.414                          -0.467
 5     0.394   0.164                       0.327                          -0.490
 6     0.469   0.157                       0.123                          -0.527
 7     0.474   0.204                       0.118                          -0.248
 8     0.449   0.225                       0.224                          -0.323
 9     0.468   0.209                       0.143                          -0.211
10     0.531   0.189                       0.0737                         -0.415
# ℹ 3,990 more rows

Remember, we can effectively do whatever we want with our parameters’ posterior distribution samples. This includes computing estimates for the usual type of predictions or estimates for the conditional expectation of the response given inputs. For the Poisson example, the linear model predictions are on the log-link scale, i.e., \(\log \lambda | X = X\beta\), so we could simply across the columns to generate a full distribution for the estimate of this conditional expectation and then exponentiate (or more generally transform using the inverse-link function) to get on the response scale. Then just like before with our parameters of interest, we can visualize and summarize this posterior distribution for the conditional expectation of goals scored by Chelsea at home against (as demonstrated in the code chunk below).

chelsea_liverpool_samples <- chelsea_liverpool_samples |>
  mutate(log_pred = intercept + is_home + b_intercept_off_team_chelsea + 
           b_intercept_def_team_liverpool,
         response_pred = exp(log_pred))
chelsea_liverpool_samples

# A tibble: 4,000 × 6
   intercept is_home b_intercept_off_team_chel…¹ b_intercept_def_team…² log_pred
       <dbl>   <dbl>                       <dbl>                  <dbl>    <dbl>
 1     0.335   0.180                      0.306                  -0.314    0.507
 2     0.288   0.287                      0.140                  -0.189    0.527
 3     0.226   0.271                      0.0235                 -0.140    0.381
 4     0.454   0.123                      0.414                  -0.467    0.524
 5     0.394   0.164                      0.327                  -0.490    0.394
 6     0.469   0.157                      0.123                  -0.527    0.222
 7     0.474   0.204                      0.118                  -0.248    0.547
 8     0.449   0.225                      0.224                  -0.323    0.575
 9     0.468   0.209                      0.143                  -0.211    0.609
10     0.531   0.189                      0.0737                 -0.415    0.378
# ℹ 3,990 more rows
# ℹ abbreviated names: ¹​b_intercept_off_team_chelsea,
#   ²​b_intercept_def_team_liverpool
# ℹ 1 more variable: response_pred <dbl>
…
The above samples and resulting histogram are called the posterior predictive distribution, as it captures the generation of observations from the distribution of the outcome implied by the posterior distribution of the parameters of interest.

BUT - we just talked walked through this process for only a single observation! All of those steps were used to generate the posterior distribution predictions for Chelsea’s goals scored against Liverpool at home. We need to do this process for every single observation we want to generate predictions for!

Here’s the good news, rstanarm has easy-to-use functions to repeat this process for across all observations we want to generate predictions for with uncertainty quantification. This is separated by the two different versions:

Posterior distribution for conditional expectation

posterior_linpred() - generates posterior draws of the linear predictor on the link scale (i.e., the posterior distribution for the model parameters aggregated together). For the Poisson example, this is on the log scale like the log_pred values from above. The code chunk below shows how these are equivalent:

posterior_linpred(team_goals_model, newdata = chelsea_liverpool) |> as_tibble()

# A tibble: 4,000 × 1
     `1`
   <dbl>
 1 0.507
 2 0.527
 3 0.381
 4 0.524
 5 0.394
 6 0.222
 7 0.547
 8 0.575
 9 0.609
10 0.378
# ℹ 3,990 more rows

# Just display the first so many of the manually computed values:
head(chelsea_liverpool_samples$log_pred)

[1] 0.5065675 0.5268763 0.3810484 0.5239878 0.3944887 0.2215395

posterior_epred() - same as posterior_linpred(), EXCEPT the response values are transformed by inverse-link function (equivalent to using transform = TRUE in posterior_linpred()). For the Poisson example, this is the response_pred column that results from taking the exponential of linear model predictions log_pred. If your model is Gaussian, then posterior_linpred() and posterior_epred() are equivalent. The code chunk below shows how this generates the same output from the manual version above:

posterior_epred(team_goals_model, newdata = chelsea_liverpool) |> as_tibble()

# A tibble: 4,000 × 1
     `1`
   <dbl>
 1  1.66
 2  1.69
 3  1.46
 4  1.69
 5  1.48
 6  1.25
 7  1.73
 8  1.78
 9  1.84
10  1.46
# ℹ 3,990 more rows

head(chelsea_liverpool_samples$response_pred)

[1] 1.659585 1.693634 1.463818 1.688749 1.483625 1.247996

By default, you should use posterior_epred() instead of posterior_linpred() because of the link transformation to the response scale. The following code chunk shows what the output looks like for generating the posterior distributions of the conditional expectations for each of the observations in the data where each row is a posterior sample while each column is an observation from the dataset that we’re interested in generating predictions for:

posterior_epred(team_goals_model, newdata = eng_match_goals_scored) |> 
  as_tibble()

# A tibble: 4,000 × 760
     `1`   `2`   `3`   `4`   `5`   `6`   `7`   `8`   `9`  `10`  `11`  `12`  `13`
   <dbl> <dbl> <dbl> <dbl> <dbl> <dbl> <dbl> <dbl> <dbl> <dbl> <dbl> <dbl> <dbl>
 1 0.792  2.25  1.13 1.29   2.19  1.92  2.28  1.74  1.66  1.58  1.54  2.28  1.69
 2 1.14   2.83  1.11 1.06   2.25  1.40  2.14  2.27  1.69  1.86  1.53  2.53  1.60
 3 0.693  2.91  1.43 1.24   1.97  1.47  1.44  1.51  1.46  1.90  1.10  1.77  1.74
 4 1.07   2.17  1.13 0.868  2.02  2.10  3.18  1.59  1.69  1.55  2.31  2.64  2.04
 5 1.27   2.24  1.31 0.827  2.25  1.84  2.56  1.46  1.48  1.57  1.87  2.23  2.08
 6 0.623  2.02  1.75 1.09   1.48  1.76  2.17  1.58  1.25  1.91  2.37  1.78  1.99
 7 0.831  2.61  1.21 1.42   2.00  1.70  2.79  1.43  1.73  1.96  2.29  2.05  1.71
 8 0.907  2.87  1.65 1.22   2.30  1.80  1.84  1.56  1.78  1.92  1.95  2.72  1.45
 9 1.16   2.22  1.75 1.27   2.13  1.40  1.72  1.61  1.84  1.78  1.47  1.86  1.84
10 0.859  2.12  1.52 1.16   2.57  1.36  1.79  1.62  1.46  1.94  1.84  1.59  2.59
# ℹ 3,990 more rows
# ℹ 747 more variables: `14` <dbl>, `15` <dbl>, `16` <dbl>, `17` <dbl>,
#   `18` <dbl>, `19` <dbl>, `20` <dbl>, `21` <dbl>, `22` <dbl>, `23` <dbl>,
#   `24` <dbl>, `25` <dbl>, `26` <dbl>, `27` <dbl>, `28` <dbl>, `29` <dbl>,
#   `30` <dbl>, `31` <dbl>, `32` <dbl>, `33` <dbl>, `34` <dbl>, `35` <dbl>,
#   `36` <dbl>, `37` <dbl>, `38` <dbl>, `39` <dbl>, `40` <dbl>, `41` <dbl>,
#   `42` <dbl>, `43` <dbl>, `44` <dbl>, `45` <dbl>, `46` <dbl>, `47` <dbl>, …

Posterior predictive distribution

posterior_predict() - generates posterior draws from the distribution of the outcome implied by the posterior distribution for the parameter. This is equivalent to how we generated the goals_scored values from above by sampling from the Poisson distribution for each of the 4000 samples. You can see this match in the code chunk below:

posterior_predict(team_goals_model, newdata = chelsea_liverpool,
                  seed = 326) |> as_tibble()

# A tibble: 4,000 × 1
     `1`
   <int>
 1     2
 2     2
 3     1
 4     2
 5     4
 6     0
 7     2
 8     0
 9     3
10     1
# ℹ 3,990 more rows

head(chelsea_liverpool_samples$goals_scored)

[1] 2 2 1 2 4 0

And just like with posterior_epred(), if we give a dataset with more than one observation then the posterior predictive distributions will have separate columns for each observation:

posterior_predict(team_goals_model, newdata = eng_match_goals_scored) |> 
  as_tibble()

# A tibble: 4,000 × 760
     `1`   `2`   `3`   `4`   `5`   `6`   `7`   `8`   `9`  `10`  `11`  `12`  `13`
   <int> <int> <int> <int> <int> <int> <int> <int> <int> <int> <int> <int> <int>
 1     0     4     2     0     2     2     2     3     3     0     4     2     2
 2     2     2     2     0     3     3     2     2     4     0     1     1     2
 3     0     5     0     4     2     0     2     0     1     6     2     0     2
 4     0     1     0     0     2     4     1     3     2     1     1     1     2
 5     3     5     1     1     2     3     4     0     0     3     1     2     5
 6     1     0     2     1     0     2     3     1     1     0     2     3     3
 7     3     4     3     2     1     2     0     1     1     1     2     4     2
 8     1     4     2     0     4     2     1     4     0     0     3     5     0
 9     0     4     1     1     6     3     2     3     2     4     0     2     2
10     2     1     3     2     0     1     3     3     1     1     1     1     2
# ℹ 3,990 more rows
# ℹ 747 more variables: `14` <int>, `15` <int>, `16` <int>, `17` <int>,
#   `18` <int>, `19` <int>, `20` <int>, `21` <int>, `22` <int>, `23` <int>,
#   `24` <int>, `25` <int>, `26` <int>, `27` <int>, `28` <int>, `29` <int>,
#   `30` <int>, `31` <int>, `32` <int>, `33` <int>, `34` <int>, `35` <int>,
#   `36` <int>, `37` <int>, `38` <int>, `39` <int>, `40` <int>, `41` <int>,
#   `42` <int>, `43` <int>, `44` <int>, `45` <int>, `46` <int>, `47` <int>, …
…
prior_sample <- as.data.frame(prior_team_goals_model) |> as_tibble()
prior_sample

# A tibble: 4,000 × 44
   `(Intercept)` is_home b[(Intercept) off_team:Arsenal…¹ b[(Intercept) off_te…²
           <dbl>   <dbl>                            <dbl>                  <dbl>
 1         0.972  -1.46                           -0.0434                0.00993
 2         0.468   4.27                           -0.0494               -0.0662 
 3         1.88   -7.61                            0.349                 0.227  
 4         2.93   -0.610                          -0.179                -0.192  
 5         1.15    0.480                           0.697                 0.632  
 6         0.364   2.09                            0.765                 0.112  
 7        -3.51   -2.00                           -0.403                 0.288  
 8         3.69    0.336                           0.802                -0.381  
 9         0.644  -1.92                            0.0860               -0.876  
10         4.66   -4.31                            0.345                 1.86   
# ℹ 3,990 more rows
# ℹ abbreviated names: ¹​`b[(Intercept) off_team:Arsenal]`,
#   ²​`b[(Intercept) off_team:Aston_Villa]`
# ℹ 40 more variables: `b[(Intercept) off_team:Bournemouth]` <dbl>,
#   `b[(Intercept) off_team:Brentford]` <dbl>,
#   `b[(Intercept) off_team:Brighton]` <dbl>,
#   `b[(Intercept) off_team:Burnley]` <dbl>, …
…
