Lecture 19: Bayesian model comparison – Special Topics: Sports Analytics 36-460/660
…
is_home: binary indicator denoting whether or not the team was the home team in the match.

Note that each row in this dataset corresponds to information about a team’s offensive performance for a single match. This means a team is repeatedly observed for each match they played during the 2023-2024 season. I constructed this dataset using the worldfootballR package, and the script init_soccer_match_goals.R on Canvas is the code I used to make the dataset.

The code chunk below loads in the data, and then for ease we’ll only consider matches in the Premier League (i.e., league == ENG).

library(tidyverse)
match_goals_scored <- read_csv(here::here("data/soccer_match_goals.csv"))

# Create the ENG only table:
eng_match_goals_scored <- match_goals_scored |>
  filter(league == "ENG")
eng_match_goals_scored

# A tibble: 760 × 7
   goals    xG off_team       def_team        league match_id is_home
   <dbl> <dbl> <chr>          <chr>           <chr>     <dbl>   <dbl>
 1     0   0.3 Burnley        Manchester City ENG           1       1
 2     2   0.8 Arsenal        Nott'ham Forest ENG           2       1
 3     0   2.7 Everton        Fulham          ENG           3       1
 4     0   0.5 Sheffield Utd  Crystal Palace  ENG           4       1
 5     4   4   Brighton       Luton Town      ENG           5       1
 6     1   1.3 Bournemouth    West Ham        ENG           6       1
 7     5   3.3 Newcastle Utd  Aston Villa     ENG           7       1
 8     2   2.2 Brentford      Tottenham       ENG           8       1
 9     1   1.4 Chelsea        Liverpool       ENG           9       1
10     1   2.2 Manchester Utd Wolves          ENG          10       1
# ℹ 750 more rows
…
Regression Coefficients:
          Estimate Est.Error l-95% CI u-95% CI   Rhat Bulk_ESS Tail_ESS
Intercept   0.3305    0.0942   0.1475   0.5140 1.0030     1274     1845
is_home     0.1967    0.0537   0.0923   0.3040 1.0006     6173     3305

Draws were sampled using sampling(NUTS). For each parameter, Bulk_ESS
and Tail_ESS are effective sample size measures, and Rhat is the potential
scale reduction factor on split chains (at convergence, Rhat = 1).

posterior_sample <- as_tibble(team_goals_model)
posterior_sample

# A tibble: 4,000 × 47
   b_Intercept b_is_home sd_def_team__Intercept sd_off_team__Intercept Intercept
         <dbl>     <dbl>                  <dbl>                  <dbl>     <dbl>
 1       0.244    0.207                   0.311                  0.305     0.347
 2       0.330    0.217                   0.251                  0.322     0.438
 3       0.250    0.229                   0.222                  0.284     0.365
 4       0.342    0.144                   0.248                  0.267     0.414
 5       0.232    0.244                   0.252                  0.369     0.355
 6       0.409    0.116                   0.270                  0.305     0.467
 7       0.151    0.348                   0.224                  0.303     0.325
 8       0.298    0.104                   0.312                  0.277     0.350
 9       0.298    0.0907                  0.263                  0.268     0.344
10       0.199    0.260                   0.274                  0.295     0.329
# ℹ 3,990 more rows
# ℹ 42 more variables: `r_def_team[Arsenal,Intercept]` <dbl>,
#   `r_def_team[Aston.Villa,Intercept]` <dbl>,
#   `r_def_team[Bournemouth,Intercept]` <dbl>,
#   `r_def_team[Brentford,Intercept]` <dbl>,
#   `r_def_team[Brighton,Intercept]` <dbl>,
#   `r_def_team[Burnley,Intercept]` <dbl>, …
…
RMSE Comparison

For our initial comparison, we’ll evaluate each model’s predictions using root mean squared error (RMSE). If you remember from the previous lecture/demo, when we generate predictions with Bayesian regression models we will have a prediction for every observation with every posterior sample. For instance, the following code chunk generates the test data predictions using the posterior distribution for the conditional expectation (i.e., posterior_epred from last time) with model_w_def:

test_pred_w_def_samples <- posterior_epred(model_w_def, newdata = test_data)
as_tibble(test_pred_w_def_samples)

Warning: The `x` argument of `as_tibble.matrix()` must have unique column names if
`.name_repair` is omitted as of tibble 2.0.0.
ℹ Using compatibility `.name_repair`.

# A tibble: 4,000 × 158
      V1    V2    V3    V4    V5    V6    V7    V8    V9   V10   V11   V12   V13
   <dbl> <dbl> <dbl> <dbl> <dbl> <dbl> <dbl> <dbl> <dbl> <dbl> <dbl> <dbl> <dbl>
 1 0.604  1.50  1.76 1.21  0.918  2.48  1.11 0.904  1.68  2.31 1.05   2.20 1.77 
 2 1.12   2.62  1.35 1.29  0.890  2.17  1.90 1.62   1.80  2.58 1.44   2.40 1.43 
 3 1.44   1.80  1.28 1.77  0.900  1.97  1.39 1.02   1.72  2.17 1.00   1.97 1.32 
 4 0.938  1.51  1.74 0.886 1.00   2.50  1.79 1.23   1.78  2.37 1.76   1.98 1.96 
 5 1.00   1.82  1.26 1.66  1.03   1.65  1.32 1.20   1.57  2.16 0.976  2.14 1.17 
 6 0.975  1.89  2.28 1.05  0.911  2.97  2.05 1.26   1.80  2.62 1.58   2.43 2.10 
 7 1.14   1.83  1.18 1.20  0.815  3.00  1.56 1.31   1.92  2.48 0.972  3.04 0.973
 8 0.967  2.02  1.59 2.11  1.16   1.77  1.66 1.48   1.94  1.77 1.54   1.99 1.87 
 9 1.16   1.77  1.56 1.98  1.20   1.87  1.24 1.98   1.71  2.73 1.37   2.30 1.76 
10 1.27   2.08  1.64 1.52  0.766  2.34  1.84 0.849  1.71  2.60 1.23   2.26 1.29 
# ℹ 3,990 more rows
# ℹ 145 more variables: V14 <dbl>, V15 <dbl>, V16 <dbl>, V17 <dbl>, V18 <dbl>,
#   V19 <dbl>, V20 <dbl>, V21 <dbl>, V22 <dbl>, V23 <dbl>, V24 <dbl>,
#   V25 <dbl>, V26 <dbl>, V27 <dbl>, V28 <dbl>, V29 <dbl>, V30 <dbl>,
#   V31 <dbl>, V32 <dbl>, V33 <dbl>, V34 <dbl>, V35 <dbl>, V36 <dbl>,
#   V37 <dbl>, V38 <dbl>, V39 <dbl>, V40 <dbl>, V41 <dbl>, V42 <dbl>,
#   V43 <dbl>, V44 <dbl>, V45 <dbl>, V46 <dbl>, V47 <dbl>, V48 <dbl>, …
…
test_pred_wo_def_samples <- posterior_epred(model_wo_def, newdata = test_data)
sqrt(mean((test_data$goals - colMeans(test_pred_wo_def_samples))^2))

[1] 1.238943

From this we can see that the model with defense included displays better performance (this should not be surprising).

However, this is just a single number summary. Instead of collapsing every observation’s prediction into a one number, we could take also advantage of the posterior samples. While you could manually compute the test error for each of the posterior sample predictions, brms has a convenient predictive_error() function that will return this for you. For convenience, brms has a function predictive_error() that will return the matrix of test errors (i.e., observed - predicted) for each posterior sample (the rows) and observations (the columns). For instance, the following code chunk generates the test data prediction errors using the posterior distribution for the conditional expectation (i.e., posterior_epred from last time) with model_w_def:

test_error_w_def_samples <- predictive_error(model_w_def, newdata = test_data,
                                             method = "posterior_epred")
as_tibble(test_error_w_def_samples)

# A tibble: 4,000 × 158
       V1      V2    V3     V4    V5     V6      V7     V8    V9   V10    V11
    <dbl>   <dbl> <dbl>  <dbl> <dbl>  <dbl>   <dbl>  <dbl> <dbl> <dbl>  <dbl>
 1 -0.604  0.497  -1.76 -1.21  1.08  -1.48   0.885  1.10    1.32 0.691 -1.05 
 2 -1.12  -0.617  -1.35 -1.29  1.11  -1.17   0.0957 0.379   1.20 0.419 -1.44 
 3 -1.44   0.203  -1.28 -1.77  1.10  -0.968  0.613  0.977   1.28 0.828 -1.00 
 4 -0.938  0.491  -1.74 -0.886 0.997 -1.50   0.205  0.766   1.22 0.629 -1.76 
 5 -1.00   0.176  -1.26 -1.66  0.973 -0.651  0.677  0.802   1.43 0.840 -0.976
 6 -0.975  0.112  -2.28 -1.05  1.09  -1.97  -0.0481 0.737   1.20 0.375 -1.58 
 7 -1.14   0.175  -1.18 -1.20  1.19  -2.00   0.439  0.687   1.08 0.524 -0.972
 8 -0.967 -0.0228 -1.59 -2.11  0.843 -0.772  0.337  0.524   1.06 1.23  -1.54 
 9 -1.16   0.225  -1.56 -1.98  0.795 -0.870  0.759  0.0178  1.29 0.268 -1.37 
10 -1.27  -0.0776 -1.64 -1.52  1.23  -1.34   0.164  1.15    1.29 0.397 -1.23 
# ℹ 3,990 more rows
# ℹ 147 more variables: V12 <dbl>, V13 <dbl>, V14 <dbl>, V15 <dbl>, V16 <dbl>,
#   V17 <dbl>, V18 <dbl>, V19 <dbl>, V20 <dbl>, V21 <dbl>, V22 <dbl>,
#   V23 <dbl>, V24 <dbl>, V25 <dbl>, V26 <dbl>, V27 <dbl>, V28 <dbl>,
#   V29 <dbl>, V30 <dbl>, V31 <dbl>, V32 <dbl>, V33 <dbl>, V34 <dbl>,
#   V35 <dbl>, V36 <dbl>, V37 <dbl>, V38 <dbl>, V39 <dbl>, V40 <dbl>,
#   V41 <dbl>, V42 <dbl>, V43 <dbl>, V44 <dbl>, V45 <dbl>, V46 <dbl>, …
…
