Lecture 19: Introduction to Elo ratings – Special Topics: Sports Analytics 36-460/660
…
Lecture 19: Introduction to Elo ratings

Introduction

The purpose of this demo is walk through the basics of Elo ratings, with a simple implementation from scratch. We’ll just consider a dataset containing the outcomes of NFL games from the most recent 2024-25 season, including regular season and playoffs. You can find this dataset under demos/week11 as nfl_2425_games.csv. The following code chunk reads in the dataset and displays the columns which are self-explanatory:

library(tidyverse)
nfl_games <- read_csv(here::here("data/nfl_2425_games.csv"))
nfl_games

# A tibble: 285 × 7
   game_id         game_type  week home_team away_team home_score away_score
   <chr>           <chr>     <dbl> <chr>     <chr>          <dbl>      <dbl>
 1 2024_01_BAL_KC  REG           1 KC        BAL               27         20
 2 2024_01_GB_PHI  REG           1 PHI       GB                34         29
 3 2024_01_PIT_ATL REG           1 ATL       PIT               10         18
 4 2024_01_ARI_BUF REG           1 BUF       ARI               34         28
 5 2024_01_TEN_CHI REG           1 CHI       TEN               24         17
 6 2024_01_NE_CIN  REG           1 CIN       NE                10         16
 7 2024_01_HOU_IND REG           1 IND       HOU               27         29
 8 2024_01_JAX_MIA REG           1 MIA       JAX               20         17
 9 2024_01_CAR_NO  REG           1 NO        CAR               47         10
10 2024_01_MIN_NYG REG           1 NYG       MIN                6         28
# ℹ 275 more rows
…
The above indicates that the team with a rating of 1400 only had an estimated probability of winning at 24%, but then after beating the team with a rating of 1600 their Elo rating increases to about 1415.

Elo ratings for 2024-25 NFL season

Now with the basics, let’s move on to perform these calculations over the entire season, updating our table to include each team’s Elo rating following every game. We can implement this using a for loop to proceed through each game in the nfl_games table, .ooking up each team’s previous ratings and performing the above calculations.

Prior to beginning this loop, we will set-up a table initializing each team with a rating of 1500. This a naive approach since we likely have prior knowledge about each team’s strength before the start of the season, but we’ll address that later. The code chunk below initializes this starting table of ratings:

nfl_elo_ratings <- tibble(team = unique(nfl_games$home_team),
                          elo_rating = 1500,
                          week = 0)
nfl_elo_ratings

# A tibble: 32 × 3
   team  elo_rating  week
   <chr>      <dbl> <dbl>
 1 KC          1500     0
 2 PHI         1500     0
 3 ATL         1500     0
 4 BUF         1500     0
 5 CHI         1500     0
 6 CIN         1500     0
 7 IND         1500     0
 8 MIA         1500     0
 9 NO          1500     0
10 NYG         1500     0
# ℹ 22 more rows
…
  nfl_elo_ratings <- nfl_elo_ratings |>
    bind_rows(updated_ratings)
  
}

We can view the final rating for each team pretty easily:

nfl_elo_ratings |>
  group_by(team) |>
  summarize(final_rating = elo_rating[which.max(week)]) |>
  arrange(desc(final_rating))

# A tibble: 32 × 2
   team  final_rating
   <chr>        <dbl>
 1 PHI          1626.
 2 KC           1608.
 3 DET          1598.
 4 MIN          1578.
 5 BUF          1577.
 6 WAS          1569.
 7 BAL          1561.
 8 LA           1533.
 9 GB           1531.
10 LAC          1529.
# ℹ 22 more rows
…
paine_elo_ratings <- read_csv("https://raw.githubusercontent.com/Neil-Paine-1/NFL-elo-ratings/main/NFL-elo-ratings.csv")

Rows: 35898 Columns: 18
── Column specification ────────────────────────────────────────────────────────
Delimiter: ","
chr   (4): Game ID, playoff, team1, team2
dbl  (13): season, neutral, is_home, score1, score2, elo1_pre, elo2_pre, elo...
date  (1): date

ℹ Use `spec()` to retrieve the full column specification for this data.
ℹ Specify the column types or set `show_col_types = FALSE` to quiet this message.

paine_elo_ratings

# A tibble: 35,898 × 18
   `Game ID` date       season neutral is_home playoff team1 team2 score1 score2
   <chr>     <date>      <dbl>   <dbl>   <dbl> <chr>   <chr> <chr>  <dbl>  <dbl>
 1 19200926… 1920-09-26   1920       0       1 <NA>    RII   STP       48      0
 2 19200926… 1920-09-26   1920       0       0 <NA>    STP   RII        0     48
 3 19201003… 1920-10-03   1920       0       1 <NA>    AKR   WHE       43      0
 4 19201003… 1920-10-03   1920       0       0 <NA>    WHE   AKR        0     43
 5 19201003… 1920-10-03   1920       0       1 <NA>    BFF   WBU       32      6
 6 19201003… 1920-10-03   1920       0       0 <NA>    WBU   BFF        6     32
 7 19201003… 1920-10-03   1920       0       1 <NA>    CBD   PTQ       48      0
 8 19201003… 1920-10-03   1920       0       0 <NA>    PTQ   CBD        0     48
 9 19201003… 1920-10-03   1920       0       1 <NA>    CHI   MUT       20      0
10 19201003… 1920-10-03   1920       0       0 <NA>    MUT   CHI        0     20
# ℹ 35,888 more rows
# ℹ 8 more variables: elo1_pre <dbl>, elo2_pre <dbl>, elo_prob1 <dbl>,
#   elo_prob2 <dbl>, elo1_post <dbl>, elo2_post <dbl>, is_win <dbl>,
#   gm_no <dbl>
…
