Lecture 21: Bayesian state-space model for NFL team ratings – Special Topics: Sports Analytics 36-460/660
…
Lecture 21: Bayesian state-space model for NFL team ratings

Introduction

The purpose of this demo is to demonstrate how to fit a simple Bayesian state-space model, following the structure of the famous Glickman and Stern model (1998, 2017). We’ll demonstrate this using a dataset of NFL game outcomes during the Patrick Mahomes era (2018 to present, marking the years since Mahomes became the starting QB for Kansas City). You can find this dataset under demos/week12 as nfl_mahomes_era_games.csv, with the script to generate the dataset get_mahomes_era_nfl_games.csv. The following code chunk reads in the dataset, makes sure that Raiders are labeled as LV, and displays the columns:

library(tidyverse)
nfl_games <- read_csv(here::here("data/nfl_mahomes_era_games.csv")) |>
  # Combine OAK into LV:
  mutate(home_team = ifelse(home_team == "OAK", "LV", home_team),
         away_team = ifelse(away_team == "OAK", "LV", away_team))

nfl_games

# A tibble: 1,942 × 10
   season game_id      game_type  week home_team away_team home_score away_score
    <dbl> <chr>        <chr>     <dbl> <chr>     <chr>          <dbl>      <dbl>
 1   2018 2018_01_ATL… REG           1 PHI       ATL               18         12
 2   2018 2018_01_BUF… REG           1 BAL       BUF               47          3
 3   2018 2018_01_PIT… REG           1 CLE       PIT               21         21
 4   2018 2018_01_CIN… REG           1 IND       CIN               23         34
 5   2018 2018_01_TEN… REG           1 MIA       TEN               27         20
 6   2018 2018_01_SF_… REG           1 MIN       SF                24         16
 7   2018 2018_01_HOU… REG           1 NE        HOU               27         20
 8   2018 2018_01_TB_… REG           1 NO        TB                40         48
 9   2018 2018_01_JAX… REG           1 NYG       JAX               15         20
10   2018 2018_01_KC_… REG           1 LAC       KC                28         38
# ℹ 1,932 more rows
# ℹ 2 more variables: game_outcome <dbl>, score_diff <dbl>
…
# Stack the home and away together, take the sum so that we get one row for 
# each game, where home teams are 1 and away teams are -1:
games_data <- home_teams |>
  bind_rows(away_teams) |>
  group_by(game_id) |>
  summarize(across(everything(), ~ sum(.x, na.rm = TRUE)),
            .groups = "drop")

# Join this back to the context :
games_data <- games_context |>
  inner_join(games_data, by = c("game_id"))

games_data

# A tibble: 1,942 × 37
   season  week game_id    score_diff season_index   PHI   BAL   CLE   IND   MIA
    <dbl> <dbl> <chr>           <dbl>        <dbl> <dbl> <dbl> <dbl> <dbl> <dbl>
 1   2018     1 2018_01_A…          6            1     1     0     0     0     0
 2   2018     1 2018_01_B…         44            1     0     1     0     0     0
 3   2018     1 2018_01_P…          0            1     0     0     1     0     0
 4   2018     1 2018_01_C…        -11            1     0     0     0     1     0
 5   2018     1 2018_01_T…          7            1     0     0     0     0     1
 6   2018     1 2018_01_S…          8            1     0     0     0     0     0
 7   2018     1 2018_01_H…          7            1     0     0     0     0     0
 8   2018     1 2018_01_T…         -8            1     0     0     0     0     0
 9   2018     1 2018_01_J…         -5            1     0     0     0     0     0
10   2018     1 2018_01_K…        -10            1     0     0     0     0     0
# ℹ 1,932 more rows
# ℹ 27 more variables: MIN <dbl>, NE <dbl>, NO <dbl>, NYG <dbl>, LAC <dbl>,
#   ARI <dbl>, CAR <dbl>, DEN <dbl>, GB <dbl>, DET <dbl>, LV <dbl>, CIN <dbl>,
#   ATL <dbl>, BUF <dbl>, NYJ <dbl>, PIT <dbl>, TB <dbl>, TEN <dbl>, WAS <dbl>,
#   LA <dbl>, SF <dbl>, JAX <dbl>, DAL <dbl>, CHI <dbl>, HOU <dbl>, KC <dbl>,
#   SEA <dbl>
…
bayes_state_space_fit <- read_rds(here::here("data/bayes_state_space_fit.rds"))

Similar to before, we should check MCMC diagnostics for our posterior samples. But for now I’ll skip that and leave that as an exercise for you to complete.

Posterior Analysis

We’re now ready to examine the posterior distributions for the parameters. First, we’ll create a simple, tidy table that has one column for each parameter (excluding Stan’s reported log posterior density). The following code chunk sets up this table with 10,000 rows (one for each sample) and 196 columns:

raw_posterior_samples <- as.data.frame(bayes_state_space_fit, 
                                       pars = "lp__", include = FALSE) |>
  as_tibble()

raw_posterior_samples

# A tibble: 10,000 × 228
   `thetas[1,1]` `thetas[2,1]` `thetas[3,1]` `thetas[4,1]` `thetas[5,1]`
           <dbl>         <dbl>         <dbl>         <dbl>         <dbl>
 1          3.69       -1.32          -4.31           2.05         5.58 
 2          8.47        3.56           0.737          4.44         6.56 
 3          5.90       -3.98          -5.85           5.14         5.36 
 4         -6.94       -0.0864        -0.721         -1.62         8.00 
 5          4.60       -3.66          -8.84           6.45        10.2  
 6          4.59       -1.68          -5.53           7.03         8.74 
 7         -1.95        2.61           1.59           3.30        14.3  
 8          2.90        0.540         -4.56           2.63         0.810
 9          1.06       -4.72          -0.741          3.94         8.90 
10          4.43       -0.649         -1.42           1.85         7.06 
# ℹ 9,990 more rows
# ℹ 223 more variables: `thetas[6,1]` <dbl>, `thetas[7,1]` <dbl>,
#   `thetas[1,2]` <dbl>, `thetas[2,2]` <dbl>, `thetas[3,2]` <dbl>,
#   `thetas[4,2]` <dbl>, `thetas[5,2]` <dbl>, `thetas[6,2]` <dbl>,
#   `thetas[7,2]` <dbl>, `thetas[1,3]` <dbl>, `thetas[2,3]` <dbl>,
#   `thetas[3,3]` <dbl>, `thetas[4,3]` <dbl>, `thetas[5,3]` <dbl>,
#   `thetas[6,3]` <dbl>, `thetas[7,3]` <dbl>, `thetas[1,4]` <dbl>, …

You can see that the dataset of posterior samples is quite different looking from the RAPM example. There are columns named thetas[row_index,col_index], these are referring to the matrix of team ratings thetas that have one row for each season and one column for each team. So thetas[1,1] would provide us with the posterior distribution for the first team in the first year of the dataset, which is 2018.

For each ease, we’ll first separate the variance columns from the team ratings. The code below grabs the variance and autocorrelation posterior distributions:

variance_posterior_samples <- raw_posterior_samples |>
  dplyr::select(-contains("thetas"))
variance_posterior_samples

# A tibble: 10,000 × 4
   sigma_games sigma_teams sigma_seasons gamma
         <dbl>       <dbl>         <dbl> <dbl>
 1        12.2        7.29          4.17 0.593
 2        12.4        4.59          3.90 0.605
 3        12.5        6.51          4.15 0.635
 4        12.6        5.03          4.18 0.479
 5        12.1        5.53          4.79 0.623
 6        12.4        4.75          4.71 0.607
 7        12.6        4.21          4.36 0.396
 8        12.4        5.10          3.63 0.708
 9        12.2        6.61          3.68 0.764
10        12.5        5.22          3.26 0.770
# ℹ 9,990 more rows
…
team_posterior_samples

# A tibble: 2,240,000 × 3
     value season team_abbr
     <dbl>  <dbl> <chr>    
 1  3.69     2018 PHI      
 2 -1.32     2019 PHI      
 3 -4.31     2020 PHI      
 4  2.05     2021 PHI      
 5  5.58     2022 PHI      
 6  0.0247   2023 PHI      
 7 11.5      2024 PHI      
 8  8.82     2018 BAL      
 9  6.13     2019 BAL      
10  4.45     2020 BAL      
# ℹ 2,239,990 more rows

With this table on hand, we can do a variety of different tasks - such as creating our usual type of posterior distribution summaries:

team_summary <- team_posterior_samples |>
  group_by(season, team_abbr) |>
  summarize(posterior_mean = mean(value), 
            posterior_median = median(value),
            # 50% credible interval:
            lower_50 = quantile(value, 0.25),
            upper_50 = quantile(value, 0.75),
            .groups = "drop")
team_summary

# A tibble: 224 × 6
   season team_abbr posterior_mean posterior_median lower_50 upper_50
    <dbl> <chr>              <dbl>            <dbl>    <dbl>    <dbl>
 1   2018 ARI               -7.68            -7.64    -9.50    -5.83 
 2   2018 ATL               -0.497           -0.485   -2.29     1.27 
 3   2018 BAL                5.97             5.96     4.22     7.70 
 4   2018 BUF               -3.46            -3.43    -5.27    -1.65 
 5   2018 CAR               -1.01            -0.992   -2.77     0.774
 6   2018 CHI                4.41             4.38     2.65     6.14 
 7   2018 CIN               -4.08            -4.05    -5.86    -2.28 
 8   2018 CLE               -1.24            -1.21    -3.03     0.554
 9   2018 DAL                1.10             1.09    -0.560    2.76 
10   2018 DEN               -0.965           -0.985   -2.74     0.823
# ℹ 214 more rows
…
